[+] Containers:
 |- [+] Container: /Game/Levels/Main
 |   |- [+] ActorDescs:
 |   |   |- Guid:03920DF94EEFC9F86CC66185D32A3DA1 BaseClass: NativeClass:/Script/Engine.StaticMeshActor Name:StaticMeshActor_UAID_A4AE111137DC54FB00_1240666663 Label:SM_SkySphere SpatiallyLoaded:0 Bounds:IsValid=true, Min=(X=-1638400.000 Y=-1638400.000 Z=-1638400.000), Max=(X=1638400.000 Y=1638400.000 Z=1638400.000) RuntimeGrid:None EditorOnly:0 RuntimeOnly:0 HLODRelevant:0 ListedInSceneOutliner:1 IsMainWorldOnly:0 FolderPath:Lighting FolderGuid:B7E9BD5B45A652654791988DEF54CCEB
 |   |   |- Guid:0489A2D745F52C930EF623ADCADD0D55 BaseClass: NativeClass:/Script/Engine.StaticMeshActor Name:StaticMeshActor_UAID_F0A6548ADAD336DA01_1517784876 Label:Wall2 SpatiallyLoaded:1 Bounds:IsValid=true, Min=(X=115.469 Y=99.462 Z=-10.931), Max=(X=1534.497 Y=127.385 Z=289.069) RuntimeGrid:None EditorOnly:0 RuntimeOnly:0 HLODRelevant:1 ListedInSceneOutliner:1 IsMainWorldOnly:0 FolderPath:Level FolderGuid:ECF4A5644D61ACF1ACFA9E9FA127BF7C
 |   |   |- Guid:07038FC34C222D974DE3ACBDE6113AE5 BaseClass: NativeClass:/Script/Engine.StaticMeshActor Name:StaticMeshActor_UAID_F0A6548ADAD336DA01_1553461880 Label:Wall6 SpatiallyLoaded:1 Bounds:IsValid=true, Min=(X=109.979 Y=99.511 Z=-10.931), Max=(X=137.901 Y=1518.539 Z=289.069) RuntimeGrid:None EditorOnly:0 RuntimeOnly:0 HLODRelevant:1 ListedInSceneOutliner:1 IsMainWorldOnly:0 FolderPath:Level FolderGuid:F81D88C3441202472E3569A9A1BB9526
 |   |   |- Guid:087166344DC73C2961A21AA8D30982C8 BaseClass: NativeClass:/Script/Engine.WorldPartitionHLOD Name:HLOD0_Instancing_0000000061048ba5 Label:HLOD0_Instancing/OpenWorld_MainGrid_L0_X-1_Y0 SpatiallyLoaded:0 Bounds:IsValid=true, Min=(X=-38400.000 Y=-12800.000 Z=0.000), Max=(X=-12800.000 Y=12800.000 Z=1038.281) RuntimeGrid:None EditorOnly:0 RuntimeOnly:1 HLODRelevant:1 ListedInSceneOutliner:1 IsMainWorldOnly:0 FolderPath:HLOD/HLOD0_Instancing FolderGuid:C11A5F59487C0DB2AA58CABA5DEDB377
 |   |   |- Guid:0887560447341DF39A28B59E3C254C0C BaseClass: NativeClass:/Script/Engine.WorldPartitionHLOD Name:HLOD0_Instancing_000000008429cf49 Label:HLOD0_Instancing/OpenWorld_MainGrid_L0_X3_Y3 SpatiallyLoaded:0 Bounds:IsValid=true, Min=(X=64000.000 Y=64000.000 Z=8727.344), Max=(X=89600.000 Y=89600.000 Z=12871.094) RuntimeGrid:None EditorOnly:0 RuntimeOnly:1 HLODRelevant:1 ListedInSceneOutliner:1 IsMainWorldOnly:0 FolderPath:HLOD/HLOD0_Instancing FolderGuid:C11A5F59487C0DB2AA58CABA5DEDB377
 |   |   |- Guid:095EDDD4412D5CB3F4C9AD8B4C5BE2C9 BaseClass: NativeClass:/Script/Engine.StaticMeshActor Name:StaticMeshActor_UAID_F0A6548ADAD336DA01_1544031877 Label:Wall3 SpatiallyLoaded:1 Bounds:IsValid=true, Min=(X=-1508.170 Y=-127.962 Z=-10.931), Max=(X=-89.142 Y=-100.039 Z=289.069) RuntimeGrid:None EditorOnly:0 RuntimeOnly:0 HLODRelevant:1 ListedInSceneOutliner:1 IsMainWorldOnly:0 FolderPath:Level FolderGuid:ECF4A5644D61ACF1ACFA9E9FA127BF7C
 |   |   |- Guid:1DE8D7AC4103A2EABA11649C7FCF8ACA BaseClass: NativeClass:/Script/Engine.SkyLight Name:SkyLight_UAID_A85E45CFE40401D200_1470380759 Label:SkyLight SpatiallyLoaded:0 Bounds:IsValid=true, Min=(X=0.000 Y=0.000 Z=0.000), Max=(X=0.000 Y=0.000 Z=0.000) RuntimeGrid:None EditorOnly:0 RuntimeOnly:0 HLODRelevant:0 ListedInSceneOutliner:1 IsMainWorldOnly:0 FolderPath:Lighting FolderGuid:B7E9BD5B45A652654791988DEF54CCEB
 |   |   |- Guid:1FFF924A464F03DA46C52499E31A7706 BaseClass: NativeClass:/Script/Engine.WorldPartitionHLOD Name:HLOD0_Instancing_0000000075fc1435 Label:HLOD0_Instancing/OpenWorld_MainGrid_L0_X0_Y-1 SpatiallyLoaded:0 Bounds:IsValid=true, Min=(X=-12800.000 Y=-38400.000 Z=-0.781), Max=(X=12800.000 Y=-12800.000 Z=1993.750) RuntimeGrid:None EditorOnly:0 RuntimeOnly:1 HLODRelevant:1 ListedInSceneOutliner:1 IsMainWorldOnly:0 FolderPath:HLOD/HLOD0_Instancing FolderGuid:C11A5F59487C0DB2AA58CABA5DEDB377
 |   |   |- Guid:22FF4B66425E17A8764D958D6339C0F9 BaseClass: NativeClass:/Script/Engine.WorldPartitionHLOD Name:HLOD0_Instancing_00000000ed334d9f Label:HLOD0_Instancing/OpenWorld_MainGrid_L0_X0_Y3 SpatiallyLoaded:0 Bounds:IsValid=true, Min=(X=-12800.000 Y=64000.000 Z=2080.469), Max=(X=12800.000 Y=89600.000 Z=10647.656) RuntimeGrid:None EditorOnly:0 RuntimeOnly:1 HLODRelevant:1 ListedInSceneOutliner:1 IsMainWorldOnly:0 FolderPath:HLOD/HLOD0_Instancing FolderGuid:C11A5F59487C0DB2AA58CABA5DEDB377
 |   |   |- Guid:2C4435F14FA580A9D498E08F24FBAF3E BaseClass: NativeClass:/Script/Engine.StaticMeshActor Name:StaticMeshActor_UAID_F0A6548ADAD336DA01_1544034878 Label:Wall4 SpatiallyLoaded:1 Bounds:IsValid=true, Min=(X=-1508.170 Y=99.462 Z=-10.931), Max=(X=-89.142 Y=127.385 Z=289.069) RuntimeGrid:None EditorOnly:0 RuntimeOnly:0 HLODRelevant:1 ListedInSceneOutliner:1 IsMainWorldOnly:0 FolderPath:Level FolderGuid:ECF4A5644D61ACF1ACFA9E9FA127BF7C
 |   |   |- Guid:2C5BFD4B41DC7A57E5A081B5F87A1550 BaseClass: NativeClass:/Script/Engine.WorldPartitionHLOD Name:HLOD0_Instancing_000000004fc1faed Label:HLOD0_Instancing/OpenWorld_MainGrid_L0_X3_Y-2 SpatiallyLoaded:0 Bounds:IsValid=true, Min=(X=64000.000 Y=-64000.000 Z=8610.156), Max=(X=89600.000 Y=-38400.000 Z=11772.656) RuntimeGrid:None EditorOnly:0 RuntimeOnly:1 HLODRelevant:1 ListedInSceneOutliner:1 IsMainWorldOnly:0 FolderPath:HLOD/HLOD0_Instancing FolderGuid:C11A5F59487C0DB2AA58CABA5DEDB377
 |   |   |- Guid:2CE12F874AA39D020A0F4BA5739BD305 BaseClass: NativeClass:/Script/Engine.SkyAtmosphere Name:SkyAtmosphere_UAID_A85E45CFE40401D200_1470382762 Label:SkyAtmosphere SpatiallyLoaded:0 Bounds:IsValid=true, Min=(X=0.000 Y=0.000 Z=0.000), Max=(X=0.000 Y=0.000 Z=0.000) RuntimeGrid:None EditorOnly:0 RuntimeOnly:0 HLODRelevant:0 ListedInSceneOutliner:1 IsMainWorldOnly:0 FolderPath:Lighting FolderGuid:B7E9BD5B45A652654791988DEF54CCEB
 |   |   |- Guid:2E7465A44F7E365830CF24A8811EF4E1 BaseClass: NativeClass:/Script/Engine.WorldPartitionHLOD Name:HLOD0_Instancing_000000007ee1c9e3 Label:HLOD0_Instancing/OpenWorld_MainGrid_L0_X-2_Y0 SpatiallyLoaded:0 Bounds:IsValid=true, Min=(X=-64000.000 Y=-12800.000 Z=7.031), Max=(X=-38400.000 Y=12800.000 Z=6477.344) RuntimeGrid:None EditorOnly:0 RuntimeOnly:1 HLODRelevant:1 ListedInSceneOutliner:1 IsMainWorldOnly:0 FolderPath:HLOD/HLOD0_Instancing FolderGuid:C11A5F59487C0DB2AA58CABA5DEDB377
 |   |   |- Guid:314A77E7440ED0FFE72E68A62CA8D1D2 BaseClass: NativeClass:/Script/Engine.WorldPartitionHLOD Name:HLOD0_Instancing_000000007a1ec134 Label:HLOD0_Instancing/OpenWorld_MainGrid_L0_X-3_Y-1 SpatiallyLoaded:0 Bounds:IsValid=true, Min=(X=-89600.000 Y=-38400.000 Z=5807.031), Max=(X=-64000.000 Y=-12800.000 Z=9500.781) RuntimeGrid:None EditorOnly:0 RuntimeOnly:1 HLODRelevant:1 ListedInSceneOutliner:1 IsMainWorldOnly:0 FolderPath:HLOD/HLOD0_Instancing FolderGuid:C11A5F59487C0DB2AA58CABA5DEDB377
 |   |   |- Guid:33CD991548A32A90ED95F0891BC72E78 BaseClass: NativeClass:/Script/Engine.WorldPartitionHLOD Name:HLOD0_Instancing_00000000808a2d8c Label:HLOD0_Instancing/OpenWorld_MainGrid_L0_X2_Y2 SpatiallyLoaded:0 Bounds:IsValid=true, Min=(X=38400.000 Y=38400.000 Z=5341.406), Max=(X=64000.000 Y=64000.000 Z=10853.906) RuntimeGrid:None EditorOnly:0 RuntimeOnly:1 HLODRelevant:1 ListedInSceneOutliner:1 IsMainWorldOnly:0 FolderPath:HLOD/HLOD0_Instancing FolderGuid:C11A5F59487C0DB2AA58CABA5DEDB377
 |   |   |- Guid:367975094365C1CC47BBAD880488F913 BaseClass: NativeClass:/Script/Engine.StaticMeshActor Name:StaticMeshActor_UAID_F0A6548ADAD336DA01_1578476882 Label:Wall8 SpatiallyLoaded:1 Bounds:IsValid=true, Min=(X=110.062 Y=-1519.799 Z=-10.931), Max=(X=137.985 Y=-100.771 Z=289.069) RuntimeGrid:None EditorOnly:0 RuntimeOnly:0 HLODRelevant:1 ListedInSceneOutliner:1 IsMainWorldOnly:0 FolderPath:Level FolderGuid:F81D88C3441202472E3569A9A1BB9526
 |   |   |- Guid:37D1C65B454EE451B8EC27A8FD3AA8AB BaseClass: NativeClass:/Script/Engine.WorldPartitionHLOD Name:HLOD0_Instancing_00000000e9f6f481 Label:HLOD0_Instancing/OpenWorld_MainGrid_L0_X1_Y-2 SpatiallyLoaded:0 Bounds:IsValid=true, Min=(X=12800.000 Y=-64000.000 Z=1064.062), Max=(X=38400.000 Y=-38400.000 Z=6511.719) RuntimeGrid:None EditorOnly:0 RuntimeOnly:1 HLODRelevant:1 ListedInSceneOutliner:1 IsMainWorldOnly:0 FolderPath:HLOD/HLOD0_Instancing FolderGuid:C11A5F59487C0DB2AA58CABA5DEDB377
 |   |   |- Guid:3E1681BE4375035B429B09B35519417B BaseClass: NativeClass:/Script/Engine.WorldPartitionHLOD Name:HLOD0_Instancing_00000000326281e7 Label:HLOD0_Instancing/OpenWorld_MainGrid_L0_X2_Y-1 SpatiallyLoaded:0 Bounds:IsValid=true, Min=(X=38400.000 Y=-38400.000 Z=3310.156), Max=(X=64000.000 Y=-12800.000 Z=11691.406) RuntimeGrid:None EditorOnly:0 RuntimeOnly:1 HLODRelevant:1 ListedInSceneOutliner:1 IsMainWorldOnly:0 FolderPath:HLOD/HLOD0_Instancing FolderGuid:C11A5F59487C0DB2AA58CABA5DEDB377
 |   |   |- Guid:431912334749DCE71D54A99356C0B360 BaseClass: NativeClass:/Script/Engine.WorldPartitionHLOD Name:HLOD0_Instancing_00000000eef772e0 Label:HLOD0_Instancing/OpenWorld_MainGrid_L0_X-3_Y0 SpatiallyLoaded:0 Bounds:IsValid=true, Min=(X=-89600.000 Y=-12800.000 Z=847.656), Max=(X=-64000.000 Y=12800.000 Z=9271.094) RuntimeGrid:None EditorOnly:0 RuntimeOnly:1 HLODRelevant:1 ListedInSceneOutliner:1 IsMainWorldOnly:0 FolderPath:HLOD/HLOD0_Instancing FolderGuid:C11A5F59487C0DB2AA58CABA5DEDB377
 |   |   |- Guid:475182E54B2284542BA2D6AF15E9DEF5 BaseClass: NativeClass:/Script/Engine.StaticMeshActor Name:StaticMeshActor_UAID_F0A6548ADAD336DA01_1687755886 Label:Wall11 SpatiallyLoaded:1 Bounds:IsValid=true, Min=(X=-109.359 Y=-1519.603 Z=-10.931), Max=(X=142.600 Y=-1491.680 Z=289.069) RuntimeGrid:None EditorOnly:0 RuntimeOnly:0 HLODRelevant:1 ListedInSceneOutliner:1 IsMainWorldOnly:0 FolderPath:Level FolderGuid:ECF4A5644D61ACF1ACFA9E9FA127BF7C
 |   |   |- Guid:5368FABB47D6D9580DAECA8B0417BF92 BaseClass: NativeClass:/Script/Engine.WorldDataLayers Name:WorldDataLayers Label:WorldDataLayers-1 SpatiallyLoaded:0 Bounds:Invalid RuntimeGrid:None EditorOnly:0 RuntimeOnly:0 HLODRelevant:0 ListedInSceneOutliner:1 IsMainWorldOnly:1
 |   |   |- Guid:5411FF1949C35F3A598AD0BD69C6E231 BaseClass: NativeClass:/Script/Engine.WorldPartitionHLOD Name:HLOD0_Instancing_0000000058c07e9c Label:HLOD0_Instancing/OpenWorld_MainGrid_L0_X2_Y3 SpatiallyLoaded:0 Bounds:IsValid=true, Min=(X=38400.000 Y=64000.000 Z=7785.156), Max=(X=64000.000 Y=89600.000 Z=11791.406) RuntimeGrid:None EditorOnly:0 RuntimeOnly:1 HLODRelevant:1 ListedInSceneOutliner:1 IsMainWorldOnly:0 FolderPath:HLOD/HLOD0_Instancing FolderGuid:C11A5F59487C0DB2AA58CABA5DEDB377
 |   |   |- Guid:548F2705451DA2FC98B90486A2E7ED3F BaseClass: NativeClass:/Script/Engine.WorldPartitionHLOD Name:HLOD0_Instancing_00000000fdc49d15 Label:HLOD0_Instancing/OpenWorld_MainGrid_L0_X2_Y-2 SpatiallyLoaded:0 Bounds:IsValid=true, Min=(X=38400.000 Y=-64000.000 Z=5639.844), Max=(X=64000.000 Y=-38400.000 Z=10830.469) RuntimeGrid:None EditorOnly:0 RuntimeOnly:1 HLODRelevant:1 ListedInSceneOutliner:1 IsMainWorldOnly:0 FolderPath:HLOD/HLOD0_Instancing FolderGuid:C11A5F59487C0DB2AA58CABA5DEDB377
 |   |   |- Guid:56D32ADD4F5EDC7E9E5678A25C3C90A9 BaseClass: NativeClass:/Script/Engine.WorldPartitionHLOD Name:HLOD0_Instancing_000000009ec32732 Label:HLOD0_Instancing/OpenWorld_MainGrid_L0_X1_Y1 SpatiallyLoaded:0 Bounds:IsValid=true, Min=(X=12800.000 Y=12800.000 Z=0.000), Max=(X=38400.000 Y=38400.000 Z=5888.281) RuntimeGrid:None EditorOnly:0 RuntimeOnly:1 HLODRelevant:1 ListedInSceneOutliner:1 IsMainWorldOnly:0 FolderPath:HLOD/HLOD0_Instancing FolderGuid:C11A5F59487C0DB2AA58CABA5DEDB377
 |   |   |- Guid:59D567B34B74458883F0C086B173ED53 BaseClass: NativeClass:/Script/Engine.WorldPartitionHLOD Name:HLOD0_Instancing_000000000479efcd Label:HLOD0_Instancing/OpenWorld_MainGrid_L0_X-3_Y2 SpatiallyLoaded:0 Bounds:IsValid=true, Min=(X=-89600.000 Y=38400.000 Z=5450.781), Max=(X=-64000.000 Y=64000.000 Z=11130.469) RuntimeGrid:None EditorOnly:0 RuntimeOnly:1 HLODRelevant:1 ListedInSceneOutliner:1 IsMainWorldOnly:0 FolderPath:HLOD/HLOD0_Instancing FolderGuid:C11A5F59487C0DB2AA58CABA5DEDB377
 |   |   |- Guid:5A9B76F04897746AA4EF02ADE6A0C75C BaseClass: NativeClass:/Script/Engine.WorldPartitionHLOD Name:HLOD0_Instancing_000000002387b43f Label:HLOD0_Instancing/OpenWorld_MainGrid_L0_X-2_Y1 SpatiallyLoaded:0 Bounds:IsValid=true, Min=(X=-64000.000 Y=12800.000 Z=131.250), Max=(X=-38400.000 Y=38400.000 Z=8019.531) RuntimeGrid:None EditorOnly:0 RuntimeOnly:1 HLODRelevant:1 ListedInSceneOutliner:1 IsMainWorldOnly:0 FolderPath:HLOD/HLOD0_Instancing FolderGuid:C11A5F59487C0DB2AA58CABA5DEDB377
 |   |   |- Guid:5E533D61427B820102A1EDAD9D476A2D BaseClass: NativeClass:/Script/Engine.WorldPartitionHLOD Name:HLOD0_Instancing_00000000e893856a Label:HLOD0_Instancing/OpenWorld_MainGrid_L0_X2_Y-3 SpatiallyLoaded:0 Bounds:IsValid=true, Min=(X=38400.000 Y=-89600.000 Z=5939.844), Max=(X=64000.000 Y=-64000.000 Z=10986.719) RuntimeGrid:None EditorOnly:0 RuntimeOnly:1 HLODRelevant:1 ListedInSceneOutliner:1 IsMainWorldOnly:0 FolderPath:HLOD/HLOD0_Instancing FolderGuid:C11A5F59487C0DB2AA58CABA5DEDB377
 |   |   |- Guid:6300AA344D7E740451747796C13A1D4F BaseClass: NativeClass:/Script/Engine.WorldPartitionHLOD Name:HLOD0_Instancing_00000000ada93d64 Label:HLOD0_Instancing/OpenWorld_MainGrid_L0_X-2_Y-2 SpatiallyLoaded:0 Bounds:IsValid=true, Min=(X=-64000.000 Y=-64000.000 Z=5113.281), Max=(X=-38400.000 Y=-38400.000 Z=7863.281) RuntimeGrid:None EditorOnly:0 RuntimeOnly:1 HLODRelevant:1 ListedInSceneOutliner:1 IsMainWorldOnly:0 FolderPath:HLOD/HLOD0_Instancing FolderGuid:C11A5F59487C0DB2AA58CABA5DEDB377
 |   |   |- Guid:647817754841478B7E4EB58985DEE0EA BaseClass: NativeClass:/Script/Engine.WorldPartitionHLOD Name:HLOD0_Instancing_000000007055a5f9 Label:HLOD0_Instancing/OpenWorld_MainGrid_L0_X-1_Y-3 SpatiallyLoaded:0 Bounds:IsValid=true, Min=(X=-38400.000 Y=-89600.000 Z=6572.656), Max=(X=-12800.000 Y=-64000.000 Z=11941.406) RuntimeGrid:None EditorOnly:0 RuntimeOnly:1 HLODRelevant:1 ListedInSceneOutliner:1 IsMainWorldOnly:0 FolderPath:HLOD/HLOD0_Instancing FolderGuid:C11A5F59487C0DB2AA58CABA5DEDB377
 |   |   |- Guid:677A2BF8450120D0FC0CCEA119B4B7C9 BaseClass: NativeClass:/Script/Engine.WorldPartitionHLOD Name:HLOD0_Instancing_00000000ce61b913 Label:HLOD0_Instancing/OpenWorld_MainGrid_L0_X1_Y2 SpatiallyLoaded:0 Bounds:IsValid=true, Min=(X=12800.000 Y=38400.000 Z=1202.344), Max=(X=38400.000 Y=64000.000 Z=8677.344) RuntimeGrid:None EditorOnly:0 RuntimeOnly:1 HLODRelevant:1 ListedInSceneOutliner:1 IsMainWorldOnly:0 FolderPath:HLOD/HLOD0_Instancing FolderGuid:C11A5F59487C0DB2AA58CABA5DEDB377
 |   |   |- Guid:68D00BCA4F55B410044F9D9FBC70652E BaseClass: NativeClass:/Script/Engine.WorldPartitionHLOD Name:HLOD0_Instancing_000000004985b47c Label:HLOD0_Instancing/OpenWorld_MainGrid_L0_X-2_Y3 SpatiallyLoaded:0 Bounds:IsValid=true, Min=(X=-64000.000 Y=64000.000 Z=6619.531), Max=(X=-38400.000 Y=89600.000 Z=13197.656) RuntimeGrid:None EditorOnly:0 RuntimeOnly:1 HLODRelevant:1 ListedInSceneOutliner:1 IsMainWorldOnly:0 FolderPath:HLOD/HLOD0_Instancing FolderGuid:C11A5F59487C0DB2AA58CABA5DEDB377
 |   |   |- Guid:6B05C2654F3DD7BA920844AF93A8F40D BaseClass: NativeClass:/Script/Engine.StaticMeshActor Name:StaticMeshActor_UAID_F0A6548ADAD336DA01_1663835884 Label:Wall10 SpatiallyLoaded:1 Bounds:IsValid=true, Min=(X=-1509.027 Y=-125.467 Z=-10.931), Max=(X=-1481.105 Y=126.492 Z=289.069) RuntimeGrid:None EditorOnly:0 RuntimeOnly:0 HLODRelevant:1 ListedInSceneOutliner:1 IsMainWorldOnly:0 FolderPath:Level FolderGuid:ECF4A5644D61ACF1ACFA9E9FA127BF7C
 |   |   |- Guid:6FA6641747858E98101CB895F7A7EED8 BaseClass: NativeClass:/Script/Engine.WorldPartitionHLOD Name:HLOD0_Instancing_000000002cd92eb1 Label:HLOD0_Instancing/OpenWorld_MainGrid_L0_X-1_Y2 SpatiallyLoaded:0 Bounds:IsValid=true, Min=(X=-38400.000 Y=38400.000 Z=1284.375), Max=(X=-12800.000 Y=64000.000 Z=7450.781) RuntimeGrid:None EditorOnly:0 RuntimeOnly:1 HLODRelevant:1 ListedInSceneOutliner:1 IsMainWorldOnly:0 FolderPath:HLOD/HLOD0_Instancing FolderGuid:C11A5F59487C0DB2AA58CABA5DEDB377
 |   |   |- Guid:738C4ED141E18122A2358F84E3951E17 BaseClass: NativeClass:/Script/Engine.WorldPartitionHLOD Name:HLOD0_Instancing_0000000089b7cce8 Label:HLOD0_Instancing/OpenWorld_MainGrid_L0_X-1_Y1 SpatiallyLoaded:0 Bounds:IsValid=true, Min=(X=-38400.000 Y=12800.000 Z=0.000), Max=(X=-12800.000 Y=38400.000 Z=3609.375) RuntimeGrid:None EditorOnly:0 RuntimeOnly:1 HLODRelevant:1 ListedInSceneOutliner:1 IsMainWorldOnly:0 FolderPath:HLOD/HLOD0_Instancing FolderGuid:C11A5F59487C0DB2AA58CABA5DEDB377
 |   |   |- Guid:73ABC5934D216E3D7B0D21AF11AE9CCB BaseClass: NativeClass:/Script/Engine.StaticMeshActor Name:StaticMeshActor_UAID_F0A6548ADAD336DA01_1456060875 Label:Wall SpatiallyLoaded:1 Bounds:IsValid=true, Min=(X=115.469 Y=-127.962 Z=-10.931), Max=(X=1534.497 Y=-100.039 Z=289.069) RuntimeGrid:None EditorOnly:0 RuntimeOnly:0 HLODRelevant:1 ListedInSceneOutliner:1 IsMainWorldOnly:0 FolderPath:Level FolderGuid:ECF4A5644D61ACF1ACFA9E9FA127BF7C
 |   |   |- Guid:7644B38E49943AEA928F7980DBD39FF5 BaseClass: NativeClass:/Script/Engine.WorldPartitionHLOD Name:HLOD0_Instancing_0000000061d8a24a Label:HLOD0_Instancing/OpenWorld_MainGrid_L0_X-1_Y3 SpatiallyLoaded:0 Bounds:IsValid=true, Min=(X=-38400.000 Y=64000.000 Z=5080.469), Max=(X=-12800.000 Y=89600.000 Z=13166.406) RuntimeGrid:None EditorOnly:0 RuntimeOnly:1 HLODRelevant:1 ListedInSceneOutliner:1 IsMainWorldOnly:0 FolderPath:HLOD/HLOD0_Instancing FolderGuid:C11A5F59487C0DB2AA58CABA5DEDB377
 |   |   |- Guid:78FFF12D464297AE5F9B2FB4DFB25D86 BaseClass: NativeClass:/Script/Engine.StaticMeshActor Name:StaticMeshActor_UAID_F0A6548ADAD380DA01_1828323895 Label:Step SpatiallyLoaded:1 Bounds:IsValid=true, Min=(X=-108.134 Y=-1503.041 Z=-2.586), Max=(X=108.134 Y=-860.412 Z=97.414) RuntimeGrid:None EditorOnly:0 RuntimeOnly:0 HLODRelevant:1 ListedInSceneOutliner:1 IsMainWorldOnly:0 FolderPath:LevelActors FolderGuid:AC36AD3B4F4C629CCB106DB3B57D9B97
 |   |   |- Guid:7EB577C1484BEBBD4B5D77AF6A9FD488 BaseClass: NativeClass:/Script/Engine.WorldPartitionHLOD Name:HLOD0_Instancing_000000009100159d Label:HLOD0_Instancing/OpenWorld_MainGrid_L0_X3_Y1 SpatiallyLoaded:0 Bounds:IsValid=true, Min=(X=64000.000 Y=12800.000 Z=5872.656), Max=(X=89600.000 Y=38400.000 Z=13596.094) RuntimeGrid:None EditorOnly:0 RuntimeOnly:1 HLODRelevant:1 ListedInSceneOutliner:1 IsMainWorldOnly:0 FolderPath:HLOD/HLOD0_Instancing FolderGuid:C11A5F59487C0DB2AA58CABA5DEDB377
 |   |   |- Guid:7FB0FCF94972C8D8CCEB4D902956A3CF BaseClass: NativeClass:/Script/Engine.StaticMeshActor Name:StaticMeshActor_UAID_F0A6548ADAD336DA01_1687757887 Label:Wall12 SpatiallyLoaded:1 Bounds:IsValid=true, Min=(X=-109.359 Y=1502.176 Z=-10.931), Max=(X=142.600 Y=1530.098 Z=289.069) RuntimeGrid:None EditorOnly:0 RuntimeOnly:0 HLODRelevant:1 ListedInSceneOutliner:1 IsMainWorldOnly:0 FolderPath:Level FolderGuid:ECF4A5644D61ACF1ACFA9E9FA127BF7C
 |   |   |- Guid:815A27B240A0C1A12D2ADC811F72CC30 BaseClass: NativeClass:/Script/Engine.WorldPartitionHLOD Name:HLOD0_Instancing_00000000cf9074b0 Label:HLOD0_Instancing/OpenWorld_MainGrid_L0_X1_Y0 SpatiallyLoaded:0 Bounds:IsValid=true, Min=(X=12800.000 Y=-12800.000 Z=0.000), Max=(X=38400.000 Y=12800.000 Z=3310.156) RuntimeGrid:None EditorOnly:0 RuntimeOnly:1 HLODRelevant:1 ListedInSceneOutliner:1 IsMainWorldOnly:0 FolderPath:HLOD/HLOD0_Instancing FolderGuid:C11A5F59487C0DB2AA58CABA5DEDB377
 |   |   |- Guid:8246F9C84C13BD3D8E1D528D1EC54C79 BaseClass: NativeClass:/Script/Engine.WorldPartitionHLOD Name:HLOD0_Instancing_0000000076832c01 Label:HLOD0_Instancing/OpenWorld_MainGrid_L0_X3_Y-1 SpatiallyLoaded:0 Bounds:IsValid=true, Min=(X=64000.000 Y=-38400.000 Z=9125.781), Max=(X=89600.000 Y=-12800.000 Z=12972.656) RuntimeGrid:None EditorOnly:0 RuntimeOnly:1 HLODRelevant:1 ListedInSceneOutliner:1 IsMainWorldOnly:0 FolderPath:HLOD/HLOD0_Instancing FolderGuid:C11A5F59487C0DB2AA58CABA5DEDB377
 |   |   |- Guid:85A1405B41C50D08F8434E991DAAC9DB BaseClass: NativeClass:/Script/Engine.WorldPartitionHLOD Name:HLOD0_Instancing_000000002a2da2ce Label:HLOD0_Instancing/OpenWorld_MainGrid_L0_X0_Y1 SpatiallyLoaded:0 Bounds:IsValid=true, Min=(X=-12800.000 Y=12800.000 Z=-0.781), Max=(X=12800.000 Y=38400.000 Z=1284.375) RuntimeGrid:None EditorOnly:0 RuntimeOnly:1 HLODRelevant:1 ListedInSceneOutliner:1 IsMainWorldOnly:0 FolderPath:HLOD/HLOD0_Instancing FolderGuid:C11A5F59487C0DB2AA58CABA5DEDB377
 |   |   |- Guid:87AD541C45D7769AD130879D753E2E45 BaseClass: NativeClass:/Script/Engine.WorldPartitionHLOD Name:HLOD0_Instancing_0000000077f7731e Label:HLOD0_Instancing/OpenWorld_MainGrid_L0_X1_Y3 SpatiallyLoaded:0 Bounds:IsValid=true, Min=(X=12800.000 Y=64000.000 Z=2653.906), Max=(X=38400.000 Y=89600.000 Z=9796.094) RuntimeGrid:None EditorOnly:0 RuntimeOnly:1 HLODRelevant:1 ListedInSceneOutliner:1 IsMainWorldOnly:0 FolderPath:HLOD/HLOD0_Instancing FolderGuid:C11A5F59487C0DB2AA58CABA5DEDB377
 |   |   |- Guid:8FE63B434849D761E62B0FAE6CFC6742 BaseClass: NativeClass:/Script/Engine.WorldPartitionHLOD Name:HLOD0_Instancing_00000000809b5cf8 Label:HLOD0_Instancing/OpenWorld_MainGrid_L0_X3_Y2 SpatiallyLoaded:0 Bounds:IsValid=true, Min=(X=64000.000 Y=38400.000 Z=9205.469), Max=(X=89600.000 Y=64000.000 Z=14989.844) RuntimeGrid:None EditorOnly:0 RuntimeOnly:1 HLODRelevant:1 ListedInSceneOutliner:1 IsMainWorldOnly:0 FolderPath:HLOD/HLOD0_Instancing FolderGuid:C11A5F59487C0DB2AA58CABA5DEDB377
 |   |   |- Guid:904ABE1C4A39F6244FCE0DACE6F83751 BaseClass: NativeClass:/Script/Engine.WorldPartitionHLOD Name:HLOD0_Instancing_00000000923b1f94 Label:HLOD0_Instancing/OpenWorld_MainGrid_L0_X2_Y0 SpatiallyLoaded:0 Bounds:IsValid=true, Min=(X=38400.000 Y=-12800.000 Z=870.312), Max=(X=64000.000 Y=12800.000 Z=9125.781) RuntimeGrid:None EditorOnly:0 RuntimeOnly:1 HLODRelevant:1 ListedInSceneOutliner:1 IsMainWorldOnly:0 FolderPath:HLOD/HLOD0_Instancing FolderGuid:C11A5F59487C0DB2AA58CABA5DEDB377
 |   |   |- Guid:92451E4545D9B4D65D594C897520AFFE BaseClass: NativeClass:/Script/Engine.WorldPartitionHLOD Name:HLOD0_Instancing_00000000249b061a Label:HLOD0_Instancing/OpenWorld_MainGrid_L0_X-1_Y-1 SpatiallyLoaded:0 Bounds:IsValid=true, Min=(X=-38400.000 Y=-38400.000 Z=0.000), Max=(X=-12800.000 Y=-12800.000 Z=5260.156) RuntimeGrid:None EditorOnly:0 RuntimeOnly:1 HLODRelevant:1 ListedInSceneOutliner:1 IsMainWorldOnly:0 FolderPath:HLOD/HLOD0_Instancing FolderGuid:C11A5F59487C0DB2AA58CABA5DEDB377
 |   |   |- Guid:932568234ECC23E19F09B4A8CB3E252A BaseClass: NativeClass:/Script/Engine.WorldPartitionHLOD Name:HLOD0_Instancing_000000008074caed Label:HLOD0_Instancing/OpenWorld_MainGrid_L0_X0_Y-3 SpatiallyLoaded:0 Bounds:IsValid=true, Min=(X=-12800.000 Y=-89600.000 Z=4621.094), Max=(X=12800.000 Y=-64000.000 Z=11442.969) RuntimeGrid:None EditorOnly:0 RuntimeOnly:1 HLODRelevant:1 ListedInSceneOutliner:1 IsMainWorldOnly:0 FolderPath:HLOD/HLOD0_Instancing FolderGuid:C11A5F59487C0DB2AA58CABA5DEDB377
 |   |   |- Guid:962D6BE34E7839A2A94E65B8F6CE5D43 BaseClass: NativeClass:/Script/Engine.PlayerStart Name:PlayerStart_UAID_F02F74551BF5599B01_1153002503 Label:PlayerStart SpatiallyLoaded:0 Bounds:IsValid=true, Min=(X=1280.000 Y=-40.000 Z=58.000), Max=(X=1360.000 Y=40.000 Z=242.000) RuntimeGrid:None EditorOnly:0 RuntimeOnly:0 HLODRelevant:0 ListedInSceneOutliner:1 IsMainWorldOnly:0
 |   |   |- Guid:9818F7E546C6A3993192FA84B048DB6A BaseClass: NativeClass:/Script/Engine.WorldPartitionHLOD Name:HLOD0_Instancing_0000000025e68ee6 Label:HLOD0_Instancing/OpenWorld_MainGrid_L0_X-2_Y-1 SpatiallyLoaded:0 Bounds:IsValid=true, Min=(X=-64000.000 Y=-38400.000 Z=1038.281), Max=(X=-38400.000 Y=-12800.000 Z=8925.781) RuntimeGrid:None EditorOnly:0 RuntimeOnly:1 HLODRelevant:1 ListedInSceneOutliner:1 IsMainWorldOnly:0 FolderPath:HLOD/HLOD0_Instancing FolderGuid:C11A5F59487C0DB2AA58CABA5DEDB377
 |   |   |- Guid:98CD5BD34DBE5140765DA78928BA05F1 BaseClass: NativeClass:/Script/Engine.StaticMeshActor Name:StaticMeshActor_UAID_F0A6548ADAD336DA01_1641727883 Label:Wall9 SpatiallyLoaded:1 Bounds:IsValid=true, Min=(X=1495.434 Y=-125.467 Z=-10.931), Max=(X=1523.357 Y=126.492 Z=289.069) RuntimeGrid:None EditorOnly:0 RuntimeOnly:0 HLODRelevant:1 ListedInSceneOutliner:1 IsMainWorldOnly:0 FolderPath:Level FolderGuid:F81D88C3441202472E3569A9A1BB9526
 |   |   |- Guid:9D1AAC1C44C967DA67BFE1855888E6B9 BaseClass: NativeClass:/Script/Engine.WorldPartitionHLOD Name:HLOD0_Instancing_000000005ade2593 Label:HLOD0_Instancing/OpenWorld_MainGrid_L0_X-3_Y1 SpatiallyLoaded:0 Bounds:IsValid=true, Min=(X=-89600.000 Y=12800.000 Z=3900.781), Max=(X=-64000.000 Y=38400.000 Z=10327.344) RuntimeGrid:None EditorOnly:0 RuntimeOnly:1 HLODRelevant:1 ListedInSceneOutliner:1 IsMainWorldOnly:0 FolderPath:HLOD/HLOD0_Instancing FolderGuid:C11A5F59487C0DB2AA58CABA5DEDB377
 |   |   |- Guid:A094EFD842C29193F3CF828F922AD58C BaseClass: NativeClass:/Script/Engine.WorldPartitionHLOD Name:HLOD0_Instancing_0000000002ff7cbc Label:HLOD0_Instancing/OpenWorld_MainGrid_L0_X-3_Y-2 SpatiallyLoaded:0 Bounds:IsValid=true, Min=(X=-89600.000 Y=-64000.000 Z=5449.219), Max=(X=-64000.000 Y=-38400.000 Z=8761.719) RuntimeGrid:None EditorOnly:0 RuntimeOnly:1 HLODRelevant:1 ListedInSceneOutliner:1 IsMainWorldOnly:0 FolderPath:HLOD/HLOD0_Instancing FolderGuid:C11A5F59487C0DB2AA58CABA5DEDB377
 |   |   |- Guid:A0BEE913467B787061A3FCBD13D89F73 BaseClass: NativeClass:/Script/Engine.WorldPartitionHLOD Name:HLOD0_Instancing_00000000b1d9170c Label:HLOD0_Instancing/OpenWorld_MainGrid_L0_X1_Y-1 SpatiallyLoaded:0 Bounds:IsValid=true, Min=(X=12800.000 Y=-38400.000 Z=0.781), Max=(X=38400.000 Y=-12800.000 Z=6920.312) RuntimeGrid:None EditorOnly:0 RuntimeOnly:1 HLODRelevant:1 ListedInSceneOutliner:1 IsMainWorldOnly:0 FolderPath:HLOD/HLOD0_Instancing FolderGuid:C11A5F59487C0DB2AA58CABA5DEDB377
 |   |   |- Guid:A1B58B714367A2E4145D728993CF16AC BaseClass: NativeClass:/Script/Engine.WorldPartitionHLOD Name:HLOD0_Instancing_0000000047fd3b2b Label:HLOD0_Instancing/OpenWorld_MainGrid_L0_X-3_Y-3 SpatiallyLoaded:0 Bounds:IsValid=true, Min=(X=-89600.000 Y=-89600.000 Z=7269.531), Max=(X=-64000.000 Y=-64000.000 Z=12157.031) RuntimeGrid:None EditorOnly:0 RuntimeOnly:1 HLODRelevant:1 ListedInSceneOutliner:1 IsMainWorldOnly:0 FolderPath:HLOD/HLOD0_Instancing FolderGuid:C11A5F59487C0DB2AA58CABA5DEDB377
 |   |   |- Guid:A344A312417AA4DAB3863D85A6EACA25 BaseClass: NativeClass:/Script/Engine.WorldPartitionHLOD Name:HLOD0_Instancing_00000000faffa43c Label:HLOD0_Instancing/OpenWorld_MainGrid_L0_X1_Y-3 SpatiallyLoaded:0 Bounds:IsValid=true, Min=(X=12800.000 Y=-89600.000 Z=4950.781), Max=(X=38400.000 Y=-64000.000 Z=8967.969) RuntimeGrid:None EditorOnly:0 RuntimeOnly:1 HLODRelevant:1 ListedInSceneOutliner:1 IsMainWorldOnly:0 FolderPath:HLOD/HLOD0_Instancing FolderGuid:C11A5F59487C0DB2AA58CABA5DEDB377
 |   |   |- Guid:A653EAAA479703688EFD89BF5993FD8C BaseClass: NativeClass:/Script/Engine.WorldPartitionHLOD Name:HLOD0_Instancing_00000000456f111a Label:HLOD0_Instancing/OpenWorld_MainGrid_L0_X3_Y0 SpatiallyLoaded:0 Bounds:IsValid=true, Min=(X=64000.000 Y=-12800.000 Z=5091.406), Max=(X=89600.000 Y=12800.000 Z=11586.719) RuntimeGrid:None EditorOnly:0 RuntimeOnly:1 HLODRelevant:1 ListedInSceneOutliner:1 IsMainWorldOnly:0 FolderPath:HLOD/HLOD0_Instancing FolderGuid:C11A5F59487C0DB2AA58CABA5DEDB377
 |   |   |- Guid:AAAC6B5742760A58C2206DB37E44683C BaseClass: NativeClass:/Script/Engine.DirectionalLight Name:DirectionalLight_UAID_A85E45CFE40401D200_1470382761 Label:DirectionalLight SpatiallyLoaded:0 Bounds:IsValid=true, Min=(X=-4398046511104.000 Y=-4398046511104.000 Z=-4398046511104.000), Max=(X=4398046511104.000 Y=4398046511104.000 Z=4398046511104.000) RuntimeGrid:None EditorOnly:0 RuntimeOnly:0 HLODRelevant:0 ListedInSceneOutliner:1 IsMainWorldOnly:0 FolderPath:Lighting FolderGuid:B7E9BD5B45A652654791988DEF54CCEB
 |   |   |- Guid:AEFE58524EB02A574182C1AC85D76E6D BaseClass: NativeClass:/Script/Engine.WorldPartitionHLOD Name:HLOD0_Instancing_00000000be4f81c5 Label:HLOD0_Instancing/OpenWorld_MainGrid_L0_X-2_Y-3 SpatiallyLoaded:0 Bounds:IsValid=true, Min=(X=-64000.000 Y=-89600.000 Z=6608.594), Max=(X=-38400.000 Y=-64000.000 Z=12658.594) RuntimeGrid:None EditorOnly:0 RuntimeOnly:1 HLODRelevant:1 ListedInSceneOutliner:1 IsMainWorldOnly:0 FolderPath:HLOD/HLOD0_Instancing FolderGuid:C11A5F59487C0DB2AA58CABA5DEDB377
 |   |   |- Guid:B4462E9349E4C0A56D2E3F9F561B1C9D BaseClass: NativeClass:/Script/Engine.WorldPartitionHLOD Name:HLOD0_Instancing_00000000a7e8df26 Label:HLOD0_Instancing/OpenWorld_MainGrid_L0_X0_Y0 SpatiallyLoaded:0 Bounds:IsValid=true, Min=(X=-12800.000 Y=-12800.000 Z=-100.000), Max=(X=12800.000 Y=12800.000 Z=100.000) RuntimeGrid:None EditorOnly:0 RuntimeOnly:1 HLODRelevant:1 ListedInSceneOutliner:1 IsMainWorldOnly:0 FolderPath:HLOD/HLOD0_Instancing FolderGuid:C11A5F59487C0DB2AA58CABA5DEDB377
 |   |   |- Guid:B9001F2C41C705888E81A9AEC1A0135D BaseClass: NativeClass:/Script/Engine.StaticMeshActor Name:StaticMeshActor_UAID_F0A6548ADAD336DA01_1578473881 Label:Wall7 SpatiallyLoaded:1 Bounds:IsValid=true, Min=(X=-114.460 Y=-1519.799 Z=-10.931), Max=(X=-86.538 Y=-100.771 Z=289.069) RuntimeGrid:None EditorOnly:0 RuntimeOnly:0 HLODRelevant:1 ListedInSceneOutliner:1 IsMainWorldOnly:0 FolderPath:Level FolderGuid:ECF4A5644D61ACF1ACFA9E9FA127BF7C
 |   |   |- Guid:BAAAB9AD4A6DED4ED0A49782063EA5A2 BaseClass: NativeClass:/Script/Engine.StaticMeshActor Name:StaticMeshActor_UAID_F0A6548ADAD332DA01_2100074169 Label:Ground2 SpatiallyLoaded:1 Bounds:IsValid=true, Min=(X=-90.000 Y=-1490.000 Z=-0.000), Max=(X=110.000 Y=1510.000 Z=0.000) RuntimeGrid:None EditorOnly:0 RuntimeOnly:0 HLODRelevant:1 ListedInSceneOutliner:1 IsMainWorldOnly:0 FolderPath:Level FolderGuid:ECF4A5644D61ACF1ACFA9E9FA127BF7C
 |   |   |- Guid:C107B6DF4889256CA03FC4B623CDB5FC BaseClass: NativeClass:/Script/Engine.WorldPartitionHLOD Name:HLOD0_Instancing_00000000e95cf541 Label:HLOD0_Instancing/OpenWorld_MainGrid_L0_X-1_Y-2 SpatiallyLoaded:0 Bounds:IsValid=true, Min=(X=-38400.000 Y=-64000.000 Z=1993.750), Max=(X=-12800.000 Y=-38400.000 Z=8566.406) RuntimeGrid:None EditorOnly:0 RuntimeOnly:1 HLODRelevant:1 ListedInSceneOutliner:1 IsMainWorldOnly:0 FolderPath:HLOD/HLOD0_Instancing FolderGuid:C11A5F59487C0DB2AA58CABA5DEDB377
 |   |   |- Guid:C6104E604E796D22C97031BCDB5FCAF0 BaseClass: NativeClass:/Script/Engine.WorldPartitionHLOD Name:HLOD0_Instancing_000000007e3ba091 Label:HLOD0_Instancing/OpenWorld_MainGrid_L0_X2_Y1 SpatiallyLoaded:0 Bounds:IsValid=true, Min=(X=38400.000 Y=12800.000 Z=2264.062), Max=(X=64000.000 Y=38400.000 Z=9232.031) RuntimeGrid:None EditorOnly:0 RuntimeOnly:1 HLODRelevant:1 ListedInSceneOutliner:1 IsMainWorldOnly:0 FolderPath:HLOD/HLOD0_Instancing FolderGuid:C11A5F59487C0DB2AA58CABA5DEDB377
 |   |   |- Guid:D26B2F7341AFAC5ABA460787A2CA4CBE BaseClass: NativeClass:/Script/Engine.StaticMeshActor Name:StaticMeshActor_UAID_F0A6548ADAD32EDA01_1536357463 Label:Ground SpatiallyLoaded:1 Bounds:IsValid=true, Min=(X=-1500.000 Y=-100.000 Z=-0.000), Max=(X=1500.000 Y=100.000 Z=0.000) RuntimeGrid:None EditorOnly:0 RuntimeOnly:0 HLODRelevant:1 ListedInSceneOutliner:1 IsMainWorldOnly:0 FolderPath:Level FolderGuid:ECF4A5644D61ACF1ACFA9E9FA127BF7C
 |   |   |- Guid:D3FB7383421AAEFD3DB6F8B1E415A9FE BaseClass: NativeClass:/Script/Engine.ExponentialHeightFog Name:ExponentialHeightFog_UAID_A85E45CFE40401D200_1470382763 Label:ExponentialHeightFog SpatiallyLoaded:0 Bounds:IsValid=true, Min=(X=-5600.000 Y=-50.000 Z=-6850.000), Max=(X=-5600.000 Y=-50.000 Z=-6850.000) RuntimeGrid:None EditorOnly:0 RuntimeOnly:0 HLODRelevant:0 ListedInSceneOutliner:1 IsMainWorldOnly:0 FolderPath:Lighting FolderGuid:B7E9BD5B45A652654791988DEF54CCEB
 |   |   |- Guid:D97B3E514D1673FB3F1DAE9393134162 BaseClass: NativeClass:/Script/Engine.WorldPartitionHLOD Name:HLOD0_Instancing_00000000e6f72a11 Label:HLOD0_Instancing/OpenWorld_MainGrid_L0_X-3_Y3 SpatiallyLoaded:0 Bounds:IsValid=true, Min=(X=-89600.000 Y=64000.000 Z=8263.281), Max=(X=-64000.000 Y=89600.000 Z=13605.469) RuntimeGrid:None EditorOnly:0 RuntimeOnly:1 HLODRelevant:1 ListedInSceneOutliner:1 IsMainWorldOnly:0 FolderPath:HLOD/HLOD0_Instancing FolderGuid:C11A5F59487C0DB2AA58CABA5DEDB377
 |   |   |- Guid:E94AA2814B807AD72A3C8C8201C8737F BaseClass: NativeClass:/Script/Engine.WorldPartitionHLOD Name:HLOD0_Instancing_0000000027100cbc Label:HLOD0_Instancing/OpenWorld_MainGrid_L0_X0_Y-2 SpatiallyLoaded:0 Bounds:IsValid=true, Min=(X=-12800.000 Y=-64000.000 Z=106.250), Max=(X=12800.000 Y=-38400.000 Z=8805.469) RuntimeGrid:None EditorOnly:0 RuntimeOnly:1 HLODRelevant:1 ListedInSceneOutliner:1 IsMainWorldOnly:0 FolderPath:HLOD/HLOD0_Instancing FolderGuid:C11A5F59487C0DB2AA58CABA5DEDB377
 |   |   |- Guid:EEAED7084128DD19384A44A103777B1F BaseClass: NativeClass:/Script/Engine.StaticMeshActor Name:StaticMeshActor_UAID_F0A6548ADAD336DA01_1553459879 Label:Wall5 SpatiallyLoaded:1 Bounds:IsValid=true, Min=(X=-114.544 Y=99.511 Z=-10.931), Max=(X=-86.621 Y=1518.539 Z=289.069) RuntimeGrid:None EditorOnly:0 RuntimeOnly:0 HLODRelevant:1 ListedInSceneOutliner:1 IsMainWorldOnly:0 FolderPath:Level FolderGuid:ECF4A5644D61ACF1ACFA9E9FA127BF7C
 |   |   |- Guid:EFE127DE4AC87B71A77BF185DB0CE52E BaseClass: NativeClass:/Script/Engine.WorldPartitionHLOD Name:HLOD0_Instancing_00000000a0644c05 Label:HLOD0_Instancing/OpenWorld_MainGrid_L0_X3_Y-3 SpatiallyLoaded:0 Bounds:IsValid=true, Min=(X=64000.000 Y=-89600.000 Z=7522.656), Max=(X=89600.000 Y=-64000.000 Z=13553.906) RuntimeGrid:None EditorOnly:0 RuntimeOnly:1 HLODRelevant:1 ListedInSceneOutliner:1 IsMainWorldOnly:0 FolderPath:HLOD/HLOD0_Instancing FolderGuid:C11A5F59487C0DB2AA58CABA5DEDB377
 |   |   |- Guid:F28AE21E43BC5CB958703B8708F1A64E BaseClass: NativeClass:/Script/Engine.WorldPartitionHLOD Name:HLOD0_Instancing_00000000462530dd Label:HLOD0_Instancing/OpenWorld_MainGrid_L0_X0_Y2 SpatiallyLoaded:0 Bounds:IsValid=true, Min=(X=-12800.000 Y=38400.000 Z=100.000), Max=(X=12800.000 Y=64000.000 Z=5252.344) RuntimeGrid:None EditorOnly:0 RuntimeOnly:1 HLODRelevant:1 ListedInSceneOutliner:1 IsMainWorldOnly:0 FolderPath:HLOD/HLOD0_Instancing FolderGuid:C11A5F59487C0DB2AA58CABA5DEDB377
 |   |   |- Guid:F4E81540458864929650D1B8E8566222 BaseClass: NativeClass:/Script/Engine.WorldPartitionHLOD Name:HLOD0_Instancing_00000000195576f6 Label:HLOD0_Instancing/OpenWorld_MainGrid_L0_X-2_Y2 SpatiallyLoaded:0 Bounds:IsValid=true, Min=(X=-64000.000 Y=38400.000 Z=3219.531), Max=(X=-38400.000 Y=64000.000 Z=9172.656) RuntimeGrid:None EditorOnly:0 RuntimeOnly:1 HLODRelevant:1 ListedInSceneOutliner:1 IsMainWorldOnly:0 FolderPath:HLOD/HLOD0_Instancing FolderGuid:C11A5F59487C0DB2AA58CABA5DEDB377
 |   |- [+] Clusters:
 |   |   |- [+] [  0]
 |   |   |   |- Guid:03920DF94EEFC9F86CC66185D32A3DA1 BaseClass: NativeClass:/Script/Engine.StaticMeshActor Name:StaticMeshActor_UAID_A4AE111137DC54FB00_1240666663 Label:SM_SkySphere SpatiallyLoaded:0 Bounds:IsValid=true, Min=(X=-1638400.000 Y=-1638400.000 Z=-1638400.000), Max=(X=1638400.000 Y=1638400.000 Z=1638400.000) RuntimeGrid:None EditorOnly:0 RuntimeOnly:0 HLODRelevant:0 ListedInSceneOutliner:1 IsMainWorldOnly:0 FolderPath:Lighting FolderGuid:B7E9BD5B45A652654791988DEF54CCEB
 |   |   |- [+] [  1]
 |   |   |   |- Guid:0489A2D745F52C930EF623ADCADD0D55 BaseClass: NativeClass:/Script/Engine.StaticMeshActor Name:StaticMeshActor_UAID_F0A6548ADAD336DA01_1517784876 Label:Wall2 SpatiallyLoaded:1 Bounds:IsValid=true, Min=(X=115.469 Y=99.462 Z=-10.931), Max=(X=1534.497 Y=127.385 Z=289.069) RuntimeGrid:None EditorOnly:0 RuntimeOnly:0 HLODRelevant:1 ListedInSceneOutliner:1 IsMainWorldOnly:0 FolderPath:Level FolderGuid:ECF4A5644D61ACF1ACFA9E9FA127BF7C
 |   |   |- [+] [  2]
 |   |   |   |- Guid:07038FC34C222D974DE3ACBDE6113AE5 BaseClass: NativeClass:/Script/Engine.StaticMeshActor Name:StaticMeshActor_UAID_F0A6548ADAD336DA01_1553461880 Label:Wall6 SpatiallyLoaded:1 Bounds:IsValid=true, Min=(X=109.979 Y=99.511 Z=-10.931), Max=(X=137.901 Y=1518.539 Z=289.069) RuntimeGrid:None EditorOnly:0 RuntimeOnly:0 HLODRelevant:1 ListedInSceneOutliner:1 IsMainWorldOnly:0 FolderPath:Level FolderGuid:F81D88C3441202472E3569A9A1BB9526
 |   |   |- [+] [  3]
 |   |   |   |- Guid:087166344DC73C2961A21AA8D30982C8 BaseClass: NativeClass:/Script/Engine.WorldPartitionHLOD Name:HLOD0_Instancing_0000000061048ba5 Label:HLOD0_Instancing/OpenWorld_MainGrid_L0_X-1_Y0 SpatiallyLoaded:0 Bounds:IsValid=true, Min=(X=-38400.000 Y=-12800.000 Z=0.000), Max=(X=-12800.000 Y=12800.000 Z=1038.281) RuntimeGrid:None EditorOnly:0 RuntimeOnly:1 HLODRelevant:1 ListedInSceneOutliner:1 IsMainWorldOnly:0 FolderPath:HLOD/HLOD0_Instancing FolderGuid:C11A5F59487C0DB2AA58CABA5DEDB377
 |   |   |- [+] [  4]
 |   |   |   |- Guid:0887560447341DF39A28B59E3C254C0C BaseClass: NativeClass:/Script/Engine.WorldPartitionHLOD Name:HLOD0_Instancing_000000008429cf49 Label:HLOD0_Instancing/OpenWorld_MainGrid_L0_X3_Y3 SpatiallyLoaded:0 Bounds:IsValid=true, Min=(X=64000.000 Y=64000.000 Z=8727.344), Max=(X=89600.000 Y=89600.000 Z=12871.094) RuntimeGrid:None EditorOnly:0 RuntimeOnly:1 HLODRelevant:1 ListedInSceneOutliner:1 IsMainWorldOnly:0 FolderPath:HLOD/HLOD0_Instancing FolderGuid:C11A5F59487C0DB2AA58CABA5DEDB377
 |   |   |- [+] [  5]
 |   |   |   |- Guid:095EDDD4412D5CB3F4C9AD8B4C5BE2C9 BaseClass: NativeClass:/Script/Engine.StaticMeshActor Name:StaticMeshActor_UAID_F0A6548ADAD336DA01_1544031877 Label:Wall3 SpatiallyLoaded:1 Bounds:IsValid=true, Min=(X=-1508.170 Y=-127.962 Z=-10.931), Max=(X=-89.142 Y=-100.039 Z=289.069) RuntimeGrid:None EditorOnly:0 RuntimeOnly:0 HLODRelevant:1 ListedInSceneOutliner:1 IsMainWorldOnly:0 FolderPath:Level FolderGuid:ECF4A5644D61ACF1ACFA9E9FA127BF7C
 |   |   |- [+] [  6]
 |   |   |   |- Guid:1DE8D7AC4103A2EABA11649C7FCF8ACA BaseClass: NativeClass:/Script/Engine.SkyLight Name:SkyLight_UAID_A85E45CFE40401D200_1470380759 Label:SkyLight SpatiallyLoaded:0 Bounds:IsValid=true, Min=(X=0.000 Y=0.000 Z=0.000), Max=(X=0.000 Y=0.000 Z=0.000) RuntimeGrid:None EditorOnly:0 RuntimeOnly:0 HLODRelevant:0 ListedInSceneOutliner:1 IsMainWorldOnly:0 FolderPath:Lighting FolderGuid:B7E9BD5B45A652654791988DEF54CCEB
 |   |   |- [+] [  7]
 |   |   |   |- Guid:1FFF924A464F03DA46C52499E31A7706 BaseClass: NativeClass:/Script/Engine.WorldPartitionHLOD Name:HLOD0_Instancing_0000000075fc1435 Label:HLOD0_Instancing/OpenWorld_MainGrid_L0_X0_Y-1 SpatiallyLoaded:0 Bounds:IsValid=true, Min=(X=-12800.000 Y=-38400.000 Z=-0.781), Max=(X=12800.000 Y=-12800.000 Z=1993.750) RuntimeGrid:None EditorOnly:0 RuntimeOnly:1 HLODRelevant:1 ListedInSceneOutliner:1 IsMainWorldOnly:0 FolderPath:HLOD/HLOD0_Instancing FolderGuid:C11A5F59487C0DB2AA58CABA5DEDB377
 |   |   |- [+] [  8]
 |   |   |   |- Guid:22FF4B66425E17A8764D958D6339C0F9 BaseClass: NativeClass:/Script/Engine.WorldPartitionHLOD Name:HLOD0_Instancing_00000000ed334d9f Label:HLOD0_Instancing/OpenWorld_MainGrid_L0_X0_Y3 SpatiallyLoaded:0 Bounds:IsValid=true, Min=(X=-12800.000 Y=64000.000 Z=2080.469), Max=(X=12800.000 Y=89600.000 Z=10647.656) RuntimeGrid:None EditorOnly:0 RuntimeOnly:1 HLODRelevant:1 ListedInSceneOutliner:1 IsMainWorldOnly:0 FolderPath:HLOD/HLOD0_Instancing FolderGuid:C11A5F59487C0DB2AA58CABA5DEDB377
 |   |   |- [+] [  9]
 |   |   |   |- Guid:2C4435F14FA580A9D498E08F24FBAF3E BaseClass: NativeClass:/Script/Engine.StaticMeshActor Name:StaticMeshActor_UAID_F0A6548ADAD336DA01_1544034878 Label:Wall4 SpatiallyLoaded:1 Bounds:IsValid=true, Min=(X=-1508.170 Y=99.462 Z=-10.931), Max=(X=-89.142 Y=127.385 Z=289.069) RuntimeGrid:None EditorOnly:0 RuntimeOnly:0 HLODRelevant:1 ListedInSceneOutliner:1 IsMainWorldOnly:0 FolderPath:Level FolderGuid:ECF4A5644D61ACF1ACFA9E9FA127BF7C
 |   |   |- [+] [ 10]
 |   |   |   |- Guid:2C5BFD4B41DC7A57E5A081B5F87A1550 BaseClass: NativeClass:/Script/Engine.WorldPartitionHLOD Name:HLOD0_Instancing_000000004fc1faed Label:HLOD0_Instancing/OpenWorld_MainGrid_L0_X3_Y-2 SpatiallyLoaded:0 Bounds:IsValid=true, Min=(X=64000.000 Y=-64000.000 Z=8610.156), Max=(X=89600.000 Y=-38400.000 Z=11772.656) RuntimeGrid:None EditorOnly:0 RuntimeOnly:1 HLODRelevant:1 ListedInSceneOutliner:1 IsMainWorldOnly:0 FolderPath:HLOD/HLOD0_Instancing FolderGuid:C11A5F59487C0DB2AA58CABA5DEDB377
 |   |   |- [+] [ 11]
 |   |   |   |- Guid:2CE12F874AA39D020A0F4BA5739BD305 BaseClass: NativeClass:/Script/Engine.SkyAtmosphere Name:SkyAtmosphere_UAID_A85E45CFE40401D200_1470382762 Label:SkyAtmosphere SpatiallyLoaded:0 Bounds:IsValid=true, Min=(X=0.000 Y=0.000 Z=0.000), Max=(X=0.000 Y=0.000 Z=0.000) RuntimeGrid:None EditorOnly:0 RuntimeOnly:0 HLODRelevant:0 ListedInSceneOutliner:1 IsMainWorldOnly:0 FolderPath:Lighting FolderGuid:B7E9BD5B45A652654791988DEF54CCEB
 |   |   |- [+] [ 12]
 |   |   |   |- Guid:2E7465A44F7E365830CF24A8811EF4E1 BaseClass: NativeClass:/Script/Engine.WorldPartitionHLOD Name:HLOD0_Instancing_000000007ee1c9e3 Label:HLOD0_Instancing/OpenWorld_MainGrid_L0_X-2_Y0 SpatiallyLoaded:0 Bounds:IsValid=true, Min=(X=-64000.000 Y=-12800.000 Z=7.031), Max=(X=-38400.000 Y=12800.000 Z=6477.344) RuntimeGrid:None EditorOnly:0 RuntimeOnly:1 HLODRelevant:1 ListedInSceneOutliner:1 IsMainWorldOnly:0 FolderPath:HLOD/HLOD0_Instancing FolderGuid:C11A5F59487C0DB2AA58CABA5DEDB377
 |   |   |- [+] [ 13]
 |   |   |   |- Guid:314A77E7440ED0FFE72E68A62CA8D1D2 BaseClass: NativeClass:/Script/Engine.WorldPartitionHLOD Name:HLOD0_Instancing_000000007a1ec134 Label:HLOD0_Instancing/OpenWorld_MainGrid_L0_X-3_Y-1 SpatiallyLoaded:0 Bounds:IsValid=true, Min=(X=-89600.000 Y=-38400.000 Z=5807.031), Max=(X=-64000.000 Y=-12800.000 Z=9500.781) RuntimeGrid:None EditorOnly:0 RuntimeOnly:1 HLODRelevant:1 ListedInSceneOutliner:1 IsMainWorldOnly:0 FolderPath:HLOD/HLOD0_Instancing FolderGuid:C11A5F59487C0DB2AA58CABA5DEDB377
 |   |   |- [+] [ 14]
 |   |   |   |- Guid:33CD991548A32A90ED95F0891BC72E78 BaseClass: NativeClass:/Script/Engine.WorldPartitionHLOD Name:HLOD0_Instancing_00000000808a2d8c Label:HLOD0_Instancing/OpenWorld_MainGrid_L0_X2_Y2 SpatiallyLoaded:0 Bounds:IsValid=true, Min=(X=38400.000 Y=38400.000 Z=5341.406), Max=(X=64000.000 Y=64000.000 Z=10853.906) RuntimeGrid:None EditorOnly:0 RuntimeOnly:1 HLODRelevant:1 ListedInSceneOutliner:1 IsMainWorldOnly:0 FolderPath:HLOD/HLOD0_Instancing FolderGuid:C11A5F59487C0DB2AA58CABA5DEDB377
 |   |   |- [+] [ 15]
 |   |   |   |- Guid:367975094365C1CC47BBAD880488F913 BaseClass: NativeClass:/Script/Engine.StaticMeshActor Name:StaticMeshActor_UAID_F0A6548ADAD336DA01_1578476882 Label:Wall8 SpatiallyLoaded:1 Bounds:IsValid=true, Min=(X=110.062 Y=-1519.799 Z=-10.931), Max=(X=137.985 Y=-100.771 Z=289.069) RuntimeGrid:None EditorOnly:0 RuntimeOnly:0 HLODRelevant:1 ListedInSceneOutliner:1 IsMainWorldOnly:0 FolderPath:Level FolderGuid:F81D88C3441202472E3569A9A1BB9526
 |   |   |- [+] [ 16]
 |   |   |   |- Guid:37D1C65B454EE451B8EC27A8FD3AA8AB BaseClass: NativeClass:/Script/Engine.WorldPartitionHLOD Name:HLOD0_Instancing_00000000e9f6f481 Label:HLOD0_Instancing/OpenWorld_MainGrid_L0_X1_Y-2 SpatiallyLoaded:0 Bounds:IsValid=true, Min=(X=12800.000 Y=-64000.000 Z=1064.062), Max=(X=38400.000 Y=-38400.000 Z=6511.719) RuntimeGrid:None EditorOnly:0 RuntimeOnly:1 HLODRelevant:1 ListedInSceneOutliner:1 IsMainWorldOnly:0 FolderPath:HLOD/HLOD0_Instancing FolderGuid:C11A5F59487C0DB2AA58CABA5DEDB377
 |   |   |- [+] [ 17]
 |   |   |   |- Guid:3E1681BE4375035B429B09B35519417B BaseClass: NativeClass:/Script/Engine.WorldPartitionHLOD Name:HLOD0_Instancing_00000000326281e7 Label:HLOD0_Instancing/OpenWorld_MainGrid_L0_X2_Y-1 SpatiallyLoaded:0 Bounds:IsValid=true, Min=(X=38400.000 Y=-38400.000 Z=3310.156), Max=(X=64000.000 Y=-12800.000 Z=11691.406) RuntimeGrid:None EditorOnly:0 RuntimeOnly:1 HLODRelevant:1 ListedInSceneOutliner:1 IsMainWorldOnly:0 FolderPath:HLOD/HLOD0_Instancing FolderGuid:C11A5F59487C0DB2AA58CABA5DEDB377
 |   |   |- [+] [ 18]
 |   |   |   |- Guid:431912334749DCE71D54A99356C0B360 BaseClass: NativeClass:/Script/Engine.WorldPartitionHLOD Name:HLOD0_Instancing_00000000eef772e0 Label:HLOD0_Instancing/OpenWorld_MainGrid_L0_X-3_Y0 SpatiallyLoaded:0 Bounds:IsValid=true, Min=(X=-89600.000 Y=-12800.000 Z=847.656), Max=(X=-64000.000 Y=12800.000 Z=9271.094) RuntimeGrid:None EditorOnly:0 RuntimeOnly:1 HLODRelevant:1 ListedInSceneOutliner:1 IsMainWorldOnly:0 FolderPath:HLOD/HLOD0_Instancing FolderGuid:C11A5F59487C0DB2AA58CABA5DEDB377
 |   |   |- [+] [ 19]
 |   |   |   |- Guid:475182E54B2284542BA2D6AF15E9DEF5 BaseClass: NativeClass:/Script/Engine.StaticMeshActor Name:StaticMeshActor_UAID_F0A6548ADAD336DA01_1687755886 Label:Wall11 SpatiallyLoaded:1 Bounds:IsValid=true, Min=(X=-109.359 Y=-1519.603 Z=-10.931), Max=(X=142.600 Y=-1491.680 Z=289.069) RuntimeGrid:None EditorOnly:0 RuntimeOnly:0 HLODRelevant:1 ListedInSceneOutliner:1 IsMainWorldOnly:0 FolderPath:Level FolderGuid:ECF4A5644D61ACF1ACFA9E9FA127BF7C
 |   |   |- [+] [ 20]
 |   |   |   |- Guid:5368FABB47D6D9580DAECA8B0417BF92 BaseClass: NativeClass:/Script/Engine.WorldDataLayers Name:WorldDataLayers Label:WorldDataLayers-1 SpatiallyLoaded:0 Bounds:Invalid RuntimeGrid:None EditorOnly:0 RuntimeOnly:0 HLODRelevant:0 ListedInSceneOutliner:1 IsMainWorldOnly:1
 |   |   |- [+] [ 21]
 |   |   |   |- Guid:5411FF1949C35F3A598AD0BD69C6E231 BaseClass: NativeClass:/Script/Engine.WorldPartitionHLOD Name:HLOD0_Instancing_0000000058c07e9c Label:HLOD0_Instancing/OpenWorld_MainGrid_L0_X2_Y3 SpatiallyLoaded:0 Bounds:IsValid=true, Min=(X=38400.000 Y=64000.000 Z=7785.156), Max=(X=64000.000 Y=89600.000 Z=11791.406) RuntimeGrid:None EditorOnly:0 RuntimeOnly:1 HLODRelevant:1 ListedInSceneOutliner:1 IsMainWorldOnly:0 FolderPath:HLOD/HLOD0_Instancing FolderGuid:C11A5F59487C0DB2AA58CABA5DEDB377
 |   |   |- [+] [ 22]
 |   |   |   |- Guid:548F2705451DA2FC98B90486A2E7ED3F BaseClass: NativeClass:/Script/Engine.WorldPartitionHLOD Name:HLOD0_Instancing_00000000fdc49d15 Label:HLOD0_Instancing/OpenWorld_MainGrid_L0_X2_Y-2 SpatiallyLoaded:0 Bounds:IsValid=true, Min=(X=38400.000 Y=-64000.000 Z=5639.844), Max=(X=64000.000 Y=-38400.000 Z=10830.469) RuntimeGrid:None EditorOnly:0 RuntimeOnly:1 HLODRelevant:1 ListedInSceneOutliner:1 IsMainWorldOnly:0 FolderPath:HLOD/HLOD0_Instancing FolderGuid:C11A5F59487C0DB2AA58CABA5DEDB377
 |   |   |- [+] [ 23]
 |   |   |   |- Guid:56D32ADD4F5EDC7E9E5678A25C3C90A9 BaseClass: NativeClass:/Script/Engine.WorldPartitionHLOD Name:HLOD0_Instancing_000000009ec32732 Label:HLOD0_Instancing/OpenWorld_MainGrid_L0_X1_Y1 SpatiallyLoaded:0 Bounds:IsValid=true, Min=(X=12800.000 Y=12800.000 Z=0.000), Max=(X=38400.000 Y=38400.000 Z=5888.281) RuntimeGrid:None EditorOnly:0 RuntimeOnly:1 HLODRelevant:1 ListedInSceneOutliner:1 IsMainWorldOnly:0 FolderPath:HLOD/HLOD0_Instancing FolderGuid:C11A5F59487C0DB2AA58CABA5DEDB377
 |   |   |- [+] [ 24]
 |   |   |   |- Guid:59D567B34B74458883F0C086B173ED53 BaseClass: NativeClass:/Script/Engine.WorldPartitionHLOD Name:HLOD0_Instancing_000000000479efcd Label:HLOD0_Instancing/OpenWorld_MainGrid_L0_X-3_Y2 SpatiallyLoaded:0 Bounds:IsValid=true, Min=(X=-89600.000 Y=38400.000 Z=5450.781), Max=(X=-64000.000 Y=64000.000 Z=11130.469) RuntimeGrid:None EditorOnly:0 RuntimeOnly:1 HLODRelevant:1 ListedInSceneOutliner:1 IsMainWorldOnly:0 FolderPath:HLOD/HLOD0_Instancing FolderGuid:C11A5F59487C0DB2AA58CABA5DEDB377
 |   |   |- [+] [ 25]
 |   |   |   |- Guid:5A9B76F04897746AA4EF02ADE6A0C75C BaseClass: NativeClass:/Script/Engine.WorldPartitionHLOD Name:HLOD0_Instancing_000000002387b43f Label:HLOD0_Instancing/OpenWorld_MainGrid_L0_X-2_Y1 SpatiallyLoaded:0 Bounds:IsValid=true, Min=(X=-64000.000 Y=12800.000 Z=131.250), Max=(X=-38400.000 Y=38400.000 Z=8019.531) RuntimeGrid:None EditorOnly:0 RuntimeOnly:1 HLODRelevant:1 ListedInSceneOutliner:1 IsMainWorldOnly:0 FolderPath:HLOD/HLOD0_Instancing FolderGuid:C11A5F59487C0DB2AA58CABA5DEDB377
 |   |   |- [+] [ 26]
 |   |   |   |- Guid:5E533D61427B820102A1EDAD9D476A2D BaseClass: NativeClass:/Script/Engine.WorldPartitionHLOD Name:HLOD0_Instancing_00000000e893856a Label:HLOD0_Instancing/OpenWorld_MainGrid_L0_X2_Y-3 SpatiallyLoaded:0 Bounds:IsValid=true, Min=(X=38400.000 Y=-89600.000 Z=5939.844), Max=(X=64000.000 Y=-64000.000 Z=10986.719) RuntimeGrid:None EditorOnly:0 RuntimeOnly:1 HLODRelevant:1 ListedInSceneOutliner:1 IsMainWorldOnly:0 FolderPath:HLOD/HLOD0_Instancing FolderGuid:C11A5F59487C0DB2AA58CABA5DEDB377
 |   |   |- [+] [ 27]
 |   |   |   |- Guid:6300AA344D7E740451747796C13A1D4F BaseClass: NativeClass:/Script/Engine.WorldPartitionHLOD Name:HLOD0_Instancing_00000000ada93d64 Label:HLOD0_Instancing/OpenWorld_MainGrid_L0_X-2_Y-2 SpatiallyLoaded:0 Bounds:IsValid=true, Min=(X=-64000.000 Y=-64000.000 Z=5113.281), Max=(X=-38400.000 Y=-38400.000 Z=7863.281) RuntimeGrid:None EditorOnly:0 RuntimeOnly:1 HLODRelevant:1 ListedInSceneOutliner:1 IsMainWorldOnly:0 FolderPath:HLOD/HLOD0_Instancing FolderGuid:C11A5F59487C0DB2AA58CABA5DEDB377
 |   |   |- [+] [ 28]
 |   |   |   |- Guid:647817754841478B7E4EB58985DEE0EA BaseClass: NativeClass:/Script/Engine.WorldPartitionHLOD Name:HLOD0_Instancing_000000007055a5f9 Label:HLOD0_Instancing/OpenWorld_MainGrid_L0_X-1_Y-3 SpatiallyLoaded:0 Bounds:IsValid=true, Min=(X=-38400.000 Y=-89600.000 Z=6572.656), Max=(X=-12800.000 Y=-64000.000 Z=11941.406) RuntimeGrid:None EditorOnly:0 RuntimeOnly:1 HLODRelevant:1 ListedInSceneOutliner:1 IsMainWorldOnly:0 FolderPath:HLOD/HLOD0_Instancing FolderGuid:C11A5F59487C0DB2AA58CABA5DEDB377
 |   |   |- [+] [ 29]
 |   |   |   |- Guid:677A2BF8450120D0FC0CCEA119B4B7C9 BaseClass: NativeClass:/Script/Engine.WorldPartitionHLOD Name:HLOD0_Instancing_00000000ce61b913 Label:HLOD0_Instancing/OpenWorld_MainGrid_L0_X1_Y2 SpatiallyLoaded:0 Bounds:IsValid=true, Min=(X=12800.000 Y=38400.000 Z=1202.344), Max=(X=38400.000 Y=64000.000 Z=8677.344) RuntimeGrid:None EditorOnly:0 RuntimeOnly:1 HLODRelevant:1 ListedInSceneOutliner:1 IsMainWorldOnly:0 FolderPath:HLOD/HLOD0_Instancing FolderGuid:C11A5F59487C0DB2AA58CABA5DEDB377
 |   |   |- [+] [ 30]
 |   |   |   |- Guid:68D00BCA4F55B410044F9D9FBC70652E BaseClass: NativeClass:/Script/Engine.WorldPartitionHLOD Name:HLOD0_Instancing_000000004985b47c Label:HLOD0_Instancing/OpenWorld_MainGrid_L0_X-2_Y3 SpatiallyLoaded:0 Bounds:IsValid=true, Min=(X=-64000.000 Y=64000.000 Z=6619.531), Max=(X=-38400.000 Y=89600.000 Z=13197.656) RuntimeGrid:None EditorOnly:0 RuntimeOnly:1 HLODRelevant:1 ListedInSceneOutliner:1 IsMainWorldOnly:0 FolderPath:HLOD/HLOD0_Instancing FolderGuid:C11A5F59487C0DB2AA58CABA5DEDB377
 |   |   |- [+] [ 31]
 |   |   |   |- Guid:6B05C2654F3DD7BA920844AF93A8F40D BaseClass: NativeClass:/Script/Engine.StaticMeshActor Name:StaticMeshActor_UAID_F0A6548ADAD336DA01_1663835884 Label:Wall10 SpatiallyLoaded:1 Bounds:IsValid=true, Min=(X=-1509.027 Y=-125.467 Z=-10.931), Max=(X=-1481.105 Y=126.492 Z=289.069) RuntimeGrid:None EditorOnly:0 RuntimeOnly:0 HLODRelevant:1 ListedInSceneOutliner:1 IsMainWorldOnly:0 FolderPath:Level FolderGuid:ECF4A5644D61ACF1ACFA9E9FA127BF7C
 |   |   |- [+] [ 32]
 |   |   |   |- Guid:6FA6641747858E98101CB895F7A7EED8 BaseClass: NativeClass:/Script/Engine.WorldPartitionHLOD Name:HLOD0_Instancing_000000002cd92eb1 Label:HLOD0_Instancing/OpenWorld_MainGrid_L0_X-1_Y2 SpatiallyLoaded:0 Bounds:IsValid=true, Min=(X=-38400.000 Y=38400.000 Z=1284.375), Max=(X=-12800.000 Y=64000.000 Z=7450.781) RuntimeGrid:None EditorOnly:0 RuntimeOnly:1 HLODRelevant:1 ListedInSceneOutliner:1 IsMainWorldOnly:0 FolderPath:HLOD/HLOD0_Instancing FolderGuid:C11A5F59487C0DB2AA58CABA5DEDB377
 |   |   |- [+] [ 33]
 |   |   |   |- Guid:738C4ED141E18122A2358F84E3951E17 BaseClass: NativeClass:/Script/Engine.WorldPartitionHLOD Name:HLOD0_Instancing_0000000089b7cce8 Label:HLOD0_Instancing/OpenWorld_MainGrid_L0_X-1_Y1 SpatiallyLoaded:0 Bounds:IsValid=true, Min=(X=-38400.000 Y=12800.000 Z=0.000), Max=(X=-12800.000 Y=38400.000 Z=3609.375) RuntimeGrid:None EditorOnly:0 RuntimeOnly:1 HLODRelevant:1 ListedInSceneOutliner:1 IsMainWorldOnly:0 FolderPath:HLOD/HLOD0_Instancing FolderGuid:C11A5F59487C0DB2AA58CABA5DEDB377
 |   |   |- [+] [ 34]
 |   |   |   |- Guid:73ABC5934D216E3D7B0D21AF11AE9CCB BaseClass: NativeClass:/Script/Engine.StaticMeshActor Name:StaticMeshActor_UAID_F0A6548ADAD336DA01_1456060875 Label:Wall SpatiallyLoaded:1 Bounds:IsValid=true, Min=(X=115.469 Y=-127.962 Z=-10.931), Max=(X=1534.497 Y=-100.039 Z=289.069) RuntimeGrid:None EditorOnly:0 RuntimeOnly:0 HLODRelevant:1 ListedInSceneOutliner:1 IsMainWorldOnly:0 FolderPath:Level FolderGuid:ECF4A5644D61ACF1ACFA9E9FA127BF7C
 |   |   |- [+] [ 35]
 |   |   |   |- Guid:7644B38E49943AEA928F7980DBD39FF5 BaseClass: NativeClass:/Script/Engine.WorldPartitionHLOD Name:HLOD0_Instancing_0000000061d8a24a Label:HLOD0_Instancing/OpenWorld_MainGrid_L0_X-1_Y3 SpatiallyLoaded:0 Bounds:IsValid=true, Min=(X=-38400.000 Y=64000.000 Z=5080.469), Max=(X=-12800.000 Y=89600.000 Z=13166.406) RuntimeGrid:None EditorOnly:0 RuntimeOnly:1 HLODRelevant:1 ListedInSceneOutliner:1 IsMainWorldOnly:0 FolderPath:HLOD/HLOD0_Instancing FolderGuid:C11A5F59487C0DB2AA58CABA5DEDB377
 |   |   |- [+] [ 36]
 |   |   |   |- Guid:78FFF12D464297AE5F9B2FB4DFB25D86 BaseClass: NativeClass:/Script/Engine.StaticMeshActor Name:StaticMeshActor_UAID_F0A6548ADAD380DA01_1828323895 Label:Step SpatiallyLoaded:1 Bounds:IsValid=true, Min=(X=-108.134 Y=-1503.041 Z=-2.586), Max=(X=108.134 Y=-860.412 Z=97.414) RuntimeGrid:None EditorOnly:0 RuntimeOnly:0 HLODRelevant:1 ListedInSceneOutliner:1 IsMainWorldOnly:0 FolderPath:LevelActors FolderGuid:AC36AD3B4F4C629CCB106DB3B57D9B97
 |   |   |- [+] [ 37]
 |   |   |   |- Guid:7EB577C1484BEBBD4B5D77AF6A9FD488 BaseClass: NativeClass:/Script/Engine.WorldPartitionHLOD Name:HLOD0_Instancing_000000009100159d Label:HLOD0_Instancing/OpenWorld_MainGrid_L0_X3_Y1 SpatiallyLoaded:0 Bounds:IsValid=true, Min=(X=64000.000 Y=12800.000 Z=5872.656), Max=(X=89600.000 Y=38400.000 Z=13596.094) RuntimeGrid:None EditorOnly:0 RuntimeOnly:1 HLODRelevant:1 ListedInSceneOutliner:1 IsMainWorldOnly:0 FolderPath:HLOD/HLOD0_Instancing FolderGuid:C11A5F59487C0DB2AA58CABA5DEDB377
 |   |   |- [+] [ 38]
 |   |   |   |- Guid:7FB0FCF94972C8D8CCEB4D902956A3CF BaseClass: NativeClass:/Script/Engine.StaticMeshActor Name:StaticMeshActor_UAID_F0A6548ADAD336DA01_1687757887 Label:Wall12 SpatiallyLoaded:1 Bounds:IsValid=true, Min=(X=-109.359 Y=1502.176 Z=-10.931), Max=(X=142.600 Y=1530.098 Z=289.069) RuntimeGrid:None EditorOnly:0 RuntimeOnly:0 HLODRelevant:1 ListedInSceneOutliner:1 IsMainWorldOnly:0 FolderPath:Level FolderGuid:ECF4A5644D61ACF1ACFA9E9FA127BF7C
 |   |   |- [+] [ 39]
 |   |   |   |- Guid:815A27B240A0C1A12D2ADC811F72CC30 BaseClass: NativeClass:/Script/Engine.WorldPartitionHLOD Name:HLOD0_Instancing_00000000cf9074b0 Label:HLOD0_Instancing/OpenWorld_MainGrid_L0_X1_Y0 SpatiallyLoaded:0 Bounds:IsValid=true, Min=(X=12800.000 Y=-12800.000 Z=0.000), Max=(X=38400.000 Y=12800.000 Z=3310.156) RuntimeGrid:None EditorOnly:0 RuntimeOnly:1 HLODRelevant:1 ListedInSceneOutliner:1 IsMainWorldOnly:0 FolderPath:HLOD/HLOD0_Instancing FolderGuid:C11A5F59487C0DB2AA58CABA5DEDB377
 |   |   |- [+] [ 40]
 |   |   |   |- Guid:8246F9C84C13BD3D8E1D528D1EC54C79 BaseClass: NativeClass:/Script/Engine.WorldPartitionHLOD Name:HLOD0_Instancing_0000000076832c01 Label:HLOD0_Instancing/OpenWorld_MainGrid_L0_X3_Y-1 SpatiallyLoaded:0 Bounds:IsValid=true, Min=(X=64000.000 Y=-38400.000 Z=9125.781), Max=(X=89600.000 Y=-12800.000 Z=12972.656) RuntimeGrid:None EditorOnly:0 RuntimeOnly:1 HLODRelevant:1 ListedInSceneOutliner:1 IsMainWorldOnly:0 FolderPath:HLOD/HLOD0_Instancing FolderGuid:C11A5F59487C0DB2AA58CABA5DEDB377
 |   |   |- [+] [ 41]
 |   |   |   |- Guid:85A1405B41C50D08F8434E991DAAC9DB BaseClass: NativeClass:/Script/Engine.WorldPartitionHLOD Name:HLOD0_Instancing_000000002a2da2ce Label:HLOD0_Instancing/OpenWorld_MainGrid_L0_X0_Y1 SpatiallyLoaded:0 Bounds:IsValid=true, Min=(X=-12800.000 Y=12800.000 Z=-0.781), Max=(X=12800.000 Y=38400.000 Z=1284.375) RuntimeGrid:None EditorOnly:0 RuntimeOnly:1 HLODRelevant:1 ListedInSceneOutliner:1 IsMainWorldOnly:0 FolderPath:HLOD/HLOD0_Instancing FolderGuid:C11A5F59487C0DB2AA58CABA5DEDB377
 |   |   |- [+] [ 42]
 |   |   |   |- Guid:87AD541C45D7769AD130879D753E2E45 BaseClass: NativeClass:/Script/Engine.WorldPartitionHLOD Name:HLOD0_Instancing_0000000077f7731e Label:HLOD0_Instancing/OpenWorld_MainGrid_L0_X1_Y3 SpatiallyLoaded:0 Bounds:IsValid=true, Min=(X=12800.000 Y=64000.000 Z=2653.906), Max=(X=38400.000 Y=89600.000 Z=9796.094) RuntimeGrid:None EditorOnly:0 RuntimeOnly:1 HLODRelevant:1 ListedInSceneOutliner:1 IsMainWorldOnly:0 FolderPath:HLOD/HLOD0_Instancing FolderGuid:C11A5F59487C0DB2AA58CABA5DEDB377
 |   |   |- [+] [ 43]
 |   |   |   |- Guid:8FE63B434849D761E62B0FAE6CFC6742 BaseClass: NativeClass:/Script/Engine.WorldPartitionHLOD Name:HLOD0_Instancing_00000000809b5cf8 Label:HLOD0_Instancing/OpenWorld_MainGrid_L0_X3_Y2 SpatiallyLoaded:0 Bounds:IsValid=true, Min=(X=64000.000 Y=38400.000 Z=9205.469), Max=(X=89600.000 Y=64000.000 Z=14989.844) RuntimeGrid:None EditorOnly:0 RuntimeOnly:1 HLODRelevant:1 ListedInSceneOutliner:1 IsMainWorldOnly:0 FolderPath:HLOD/HLOD0_Instancing FolderGuid:C11A5F59487C0DB2AA58CABA5DEDB377
 |   |   |- [+] [ 44]
 |   |   |   |- Guid:904ABE1C4A39F6244FCE0DACE6F83751 BaseClass: NativeClass:/Script/Engine.WorldPartitionHLOD Name:HLOD0_Instancing_00000000923b1f94 Label:HLOD0_Instancing/OpenWorld_MainGrid_L0_X2_Y0 SpatiallyLoaded:0 Bounds:IsValid=true, Min=(X=38400.000 Y=-12800.000 Z=870.312), Max=(X=64000.000 Y=12800.000 Z=9125.781) RuntimeGrid:None EditorOnly:0 RuntimeOnly:1 HLODRelevant:1 ListedInSceneOutliner:1 IsMainWorldOnly:0 FolderPath:HLOD/HLOD0_Instancing FolderGuid:C11A5F59487C0DB2AA58CABA5DEDB377
 |   |   |- [+] [ 45]
 |   |   |   |- Guid:92451E4545D9B4D65D594C897520AFFE BaseClass: NativeClass:/Script/Engine.WorldPartitionHLOD Name:HLOD0_Instancing_00000000249b061a Label:HLOD0_Instancing/OpenWorld_MainGrid_L0_X-1_Y-1 SpatiallyLoaded:0 Bounds:IsValid=true, Min=(X=-38400.000 Y=-38400.000 Z=0.000), Max=(X=-12800.000 Y=-12800.000 Z=5260.156) RuntimeGrid:None EditorOnly:0 RuntimeOnly:1 HLODRelevant:1 ListedInSceneOutliner:1 IsMainWorldOnly:0 FolderPath:HLOD/HLOD0_Instancing FolderGuid:C11A5F59487C0DB2AA58CABA5DEDB377
 |   |   |- [+] [ 46]
 |   |   |   |- Guid:932568234ECC23E19F09B4A8CB3E252A BaseClass: NativeClass:/Script/Engine.WorldPartitionHLOD Name:HLOD0_Instancing_000000008074caed Label:HLOD0_Instancing/OpenWorld_MainGrid_L0_X0_Y-3 SpatiallyLoaded:0 Bounds:IsValid=true, Min=(X=-12800.000 Y=-89600.000 Z=4621.094), Max=(X=12800.000 Y=-64000.000 Z=11442.969) RuntimeGrid:None EditorOnly:0 RuntimeOnly:1 HLODRelevant:1 ListedInSceneOutliner:1 IsMainWorldOnly:0 FolderPath:HLOD/HLOD0_Instancing FolderGuid:C11A5F59487C0DB2AA58CABA5DEDB377
 |   |   |- [+] [ 47]
 |   |   |   |- Guid:962D6BE34E7839A2A94E65B8F6CE5D43 BaseClass: NativeClass:/Script/Engine.PlayerStart Name:PlayerStart_UAID_F02F74551BF5599B01_1153002503 Label:PlayerStart SpatiallyLoaded:0 Bounds:IsValid=true, Min=(X=1280.000 Y=-40.000 Z=58.000), Max=(X=1360.000 Y=40.000 Z=242.000) RuntimeGrid:None EditorOnly:0 RuntimeOnly:0 HLODRelevant:0 ListedInSceneOutliner:1 IsMainWorldOnly:0
 |   |   |- [+] [ 48]
 |   |   |   |- Guid:9818F7E546C6A3993192FA84B048DB6A BaseClass: NativeClass:/Script/Engine.WorldPartitionHLOD Name:HLOD0_Instancing_0000000025e68ee6 Label:HLOD0_Instancing/OpenWorld_MainGrid_L0_X-2_Y-1 SpatiallyLoaded:0 Bounds:IsValid=true, Min=(X=-64000.000 Y=-38400.000 Z=1038.281), Max=(X=-38400.000 Y=-12800.000 Z=8925.781) RuntimeGrid:None EditorOnly:0 RuntimeOnly:1 HLODRelevant:1 ListedInSceneOutliner:1 IsMainWorldOnly:0 FolderPath:HLOD/HLOD0_Instancing FolderGuid:C11A5F59487C0DB2AA58CABA5DEDB377
 |   |   |- [+] [ 49]
 |   |   |   |- Guid:98CD5BD34DBE5140765DA78928BA05F1 BaseClass: NativeClass:/Script/Engine.StaticMeshActor Name:StaticMeshActor_UAID_F0A6548ADAD336DA01_1641727883 Label:Wall9 SpatiallyLoaded:1 Bounds:IsValid=true, Min=(X=1495.434 Y=-125.467 Z=-10.931), Max=(X=1523.357 Y=126.492 Z=289.069) RuntimeGrid:None EditorOnly:0 RuntimeOnly:0 HLODRelevant:1 ListedInSceneOutliner:1 IsMainWorldOnly:0 FolderPath:Level FolderGuid:F81D88C3441202472E3569A9A1BB9526
 |   |   |- [+] [ 50]
 |   |   |   |- Guid:9D1AAC1C44C967DA67BFE1855888E6B9 BaseClass: NativeClass:/Script/Engine.WorldPartitionHLOD Name:HLOD0_Instancing_000000005ade2593 Label:HLOD0_Instancing/OpenWorld_MainGrid_L0_X-3_Y1 SpatiallyLoaded:0 Bounds:IsValid=true, Min=(X=-89600.000 Y=12800.000 Z=3900.781), Max=(X=-64000.000 Y=38400.000 Z=10327.344) RuntimeGrid:None EditorOnly:0 RuntimeOnly:1 HLODRelevant:1 ListedInSceneOutliner:1 IsMainWorldOnly:0 FolderPath:HLOD/HLOD0_Instancing FolderGuid:C11A5F59487C0DB2AA58CABA5DEDB377
 |   |   |- [+] [ 51]
 |   |   |   |- Guid:A094EFD842C29193F3CF828F922AD58C BaseClass: NativeClass:/Script/Engine.WorldPartitionHLOD Name:HLOD0_Instancing_0000000002ff7cbc Label:HLOD0_Instancing/OpenWorld_MainGrid_L0_X-3_Y-2 SpatiallyLoaded:0 Bounds:IsValid=true, Min=(X=-89600.000 Y=-64000.000 Z=5449.219), Max=(X=-64000.000 Y=-38400.000 Z=8761.719) RuntimeGrid:None EditorOnly:0 RuntimeOnly:1 HLODRelevant:1 ListedInSceneOutliner:1 IsMainWorldOnly:0 FolderPath:HLOD/HLOD0_Instancing FolderGuid:C11A5F59487C0DB2AA58CABA5DEDB377
 |   |   |- [+] [ 52]
 |   |   |   |- Guid:A0BEE913467B787061A3FCBD13D89F73 BaseClass: NativeClass:/Script/Engine.WorldPartitionHLOD Name:HLOD0_Instancing_00000000b1d9170c Label:HLOD0_Instancing/OpenWorld_MainGrid_L0_X1_Y-1 SpatiallyLoaded:0 Bounds:IsValid=true, Min=(X=12800.000 Y=-38400.000 Z=0.781), Max=(X=38400.000 Y=-12800.000 Z=6920.312) RuntimeGrid:None EditorOnly:0 RuntimeOnly:1 HLODRelevant:1 ListedInSceneOutliner:1 IsMainWorldOnly:0 FolderPath:HLOD/HLOD0_Instancing FolderGuid:C11A5F59487C0DB2AA58CABA5DEDB377
 |   |   |- [+] [ 53]
 |   |   |   |- Guid:A1B58B714367A2E4145D728993CF16AC BaseClass: NativeClass:/Script/Engine.WorldPartitionHLOD Name:HLOD0_Instancing_0000000047fd3b2b Label:HLOD0_Instancing/OpenWorld_MainGrid_L0_X-3_Y-3 SpatiallyLoaded:0 Bounds:IsValid=true, Min=(X=-89600.000 Y=-89600.000 Z=7269.531), Max=(X=-64000.000 Y=-64000.000 Z=12157.031) RuntimeGrid:None EditorOnly:0 RuntimeOnly:1 HLODRelevant:1 ListedInSceneOutliner:1 IsMainWorldOnly:0 FolderPath:HLOD/HLOD0_Instancing FolderGuid:C11A5F59487C0DB2AA58CABA5DEDB377
 |   |   |- [+] [ 54]
 |   |   |   |- Guid:A344A312417AA4DAB3863D85A6EACA25 BaseClass: NativeClass:/Script/Engine.WorldPartitionHLOD Name:HLOD0_Instancing_00000000faffa43c Label:HLOD0_Instancing/OpenWorld_MainGrid_L0_X1_Y-3 SpatiallyLoaded:0 Bounds:IsValid=true, Min=(X=12800.000 Y=-89600.000 Z=4950.781), Max=(X=38400.000 Y=-64000.000 Z=8967.969) RuntimeGrid:None EditorOnly:0 RuntimeOnly:1 HLODRelevant:1 ListedInSceneOutliner:1 IsMainWorldOnly:0 FolderPath:HLOD/HLOD0_Instancing FolderGuid:C11A5F59487C0DB2AA58CABA5DEDB377
 |   |   |- [+] [ 55]
 |   |   |   |- Guid:A653EAAA479703688EFD89BF5993FD8C BaseClass: NativeClass:/Script/Engine.WorldPartitionHLOD Name:HLOD0_Instancing_00000000456f111a Label:HLOD0_Instancing/OpenWorld_MainGrid_L0_X3_Y0 SpatiallyLoaded:0 Bounds:IsValid=true, Min=(X=64000.000 Y=-12800.000 Z=5091.406), Max=(X=89600.000 Y=12800.000 Z=11586.719) RuntimeGrid:None EditorOnly:0 RuntimeOnly:1 HLODRelevant:1 ListedInSceneOutliner:1 IsMainWorldOnly:0 FolderPath:HLOD/HLOD0_Instancing FolderGuid:C11A5F59487C0DB2AA58CABA5DEDB377
 |   |   |- [+] [ 56]
 |   |   |   |- Guid:AAAC6B5742760A58C2206DB37E44683C BaseClass: NativeClass:/Script/Engine.DirectionalLight Name:DirectionalLight_UAID_A85E45CFE40401D200_1470382761 Label:DirectionalLight SpatiallyLoaded:0 Bounds:IsValid=true, Min=(X=-4398046511104.000 Y=-4398046511104.000 Z=-4398046511104.000), Max=(X=4398046511104.000 Y=4398046511104.000 Z=4398046511104.000) RuntimeGrid:None EditorOnly:0 RuntimeOnly:0 HLODRelevant:0 ListedInSceneOutliner:1 IsMainWorldOnly:0 FolderPath:Lighting FolderGuid:B7E9BD5B45A652654791988DEF54CCEB
 |   |   |- [+] [ 57]
 |   |   |   |- Guid:AEFE58524EB02A574182C1AC85D76E6D BaseClass: NativeClass:/Script/Engine.WorldPartitionHLOD Name:HLOD0_Instancing_00000000be4f81c5 Label:HLOD0_Instancing/OpenWorld_MainGrid_L0_X-2_Y-3 SpatiallyLoaded:0 Bounds:IsValid=true, Min=(X=-64000.000 Y=-89600.000 Z=6608.594), Max=(X=-38400.000 Y=-64000.000 Z=12658.594) RuntimeGrid:None EditorOnly:0 RuntimeOnly:1 HLODRelevant:1 ListedInSceneOutliner:1 IsMainWorldOnly:0 FolderPath:HLOD/HLOD0_Instancing FolderGuid:C11A5F59487C0DB2AA58CABA5DEDB377
 |   |   |- [+] [ 58]
 |   |   |   |- Guid:B4462E9349E4C0A56D2E3F9F561B1C9D BaseClass: NativeClass:/Script/Engine.WorldPartitionHLOD Name:HLOD0_Instancing_00000000a7e8df26 Label:HLOD0_Instancing/OpenWorld_MainGrid_L0_X0_Y0 SpatiallyLoaded:0 Bounds:IsValid=true, Min=(X=-12800.000 Y=-12800.000 Z=-100.000), Max=(X=12800.000 Y=12800.000 Z=100.000) RuntimeGrid:None EditorOnly:0 RuntimeOnly:1 HLODRelevant:1 ListedInSceneOutliner:1 IsMainWorldOnly:0 FolderPath:HLOD/HLOD0_Instancing FolderGuid:C11A5F59487C0DB2AA58CABA5DEDB377
 |   |   |- [+] [ 59]
 |   |   |   |- Guid:B9001F2C41C705888E81A9AEC1A0135D BaseClass: NativeClass:/Script/Engine.StaticMeshActor Name:StaticMeshActor_UAID_F0A6548ADAD336DA01_1578473881 Label:Wall7 SpatiallyLoaded:1 Bounds:IsValid=true, Min=(X=-114.460 Y=-1519.799 Z=-10.931), Max=(X=-86.538 Y=-100.771 Z=289.069) RuntimeGrid:None EditorOnly:0 RuntimeOnly:0 HLODRelevant:1 ListedInSceneOutliner:1 IsMainWorldOnly:0 FolderPath:Level FolderGuid:ECF4A5644D61ACF1ACFA9E9FA127BF7C
 |   |   |- [+] [ 60]
 |   |   |   |- Guid:BAAAB9AD4A6DED4ED0A49782063EA5A2 BaseClass: NativeClass:/Script/Engine.StaticMeshActor Name:StaticMeshActor_UAID_F0A6548ADAD332DA01_2100074169 Label:Ground2 SpatiallyLoaded:1 Bounds:IsValid=true, Min=(X=-90.000 Y=-1490.000 Z=-0.000), Max=(X=110.000 Y=1510.000 Z=0.000) RuntimeGrid:None EditorOnly:0 RuntimeOnly:0 HLODRelevant:1 ListedInSceneOutliner:1 IsMainWorldOnly:0 FolderPath:Level FolderGuid:ECF4A5644D61ACF1ACFA9E9FA127BF7C
 |   |   |- [+] [ 61]
 |   |   |   |- Guid:C107B6DF4889256CA03FC4B623CDB5FC BaseClass: NativeClass:/Script/Engine.WorldPartitionHLOD Name:HLOD0_Instancing_00000000e95cf541 Label:HLOD0_Instancing/OpenWorld_MainGrid_L0_X-1_Y-2 SpatiallyLoaded:0 Bounds:IsValid=true, Min=(X=-38400.000 Y=-64000.000 Z=1993.750), Max=(X=-12800.000 Y=-38400.000 Z=8566.406) RuntimeGrid:None EditorOnly:0 RuntimeOnly:1 HLODRelevant:1 ListedInSceneOutliner:1 IsMainWorldOnly:0 FolderPath:HLOD/HLOD0_Instancing FolderGuid:C11A5F59487C0DB2AA58CABA5DEDB377
 |   |   |- [+] [ 62]
 |   |   |   |- Guid:C6104E604E796D22C97031BCDB5FCAF0 BaseClass: NativeClass:/Script/Engine.WorldPartitionHLOD Name:HLOD0_Instancing_000000007e3ba091 Label:HLOD0_Instancing/OpenWorld_MainGrid_L0_X2_Y1 SpatiallyLoaded:0 Bounds:IsValid=true, Min=(X=38400.000 Y=12800.000 Z=2264.062), Max=(X=64000.000 Y=38400.000 Z=9232.031) RuntimeGrid:None EditorOnly:0 RuntimeOnly:1 HLODRelevant:1 ListedInSceneOutliner:1 IsMainWorldOnly:0 FolderPath:HLOD/HLOD0_Instancing FolderGuid:C11A5F59487C0DB2AA58CABA5DEDB377
 |   |   |- [+] [ 63]
 |   |   |   |- Guid:D26B2F7341AFAC5ABA460787A2CA4CBE BaseClass: NativeClass:/Script/Engine.StaticMeshActor Name:StaticMeshActor_UAID_F0A6548ADAD32EDA01_1536357463 Label:Ground SpatiallyLoaded:1 Bounds:IsValid=true, Min=(X=-1500.000 Y=-100.000 Z=-0.000), Max=(X=1500.000 Y=100.000 Z=0.000) RuntimeGrid:None EditorOnly:0 RuntimeOnly:0 HLODRelevant:1 ListedInSceneOutliner:1 IsMainWorldOnly:0 FolderPath:Level FolderGuid:ECF4A5644D61ACF1ACFA9E9FA127BF7C
 |   |   |- [+] [ 64]
 |   |   |   |- Guid:D3FB7383421AAEFD3DB6F8B1E415A9FE BaseClass: NativeClass:/Script/Engine.ExponentialHeightFog Name:ExponentialHeightFog_UAID_A85E45CFE40401D200_1470382763 Label:ExponentialHeightFog SpatiallyLoaded:0 Bounds:IsValid=true, Min=(X=-5600.000 Y=-50.000 Z=-6850.000), Max=(X=-5600.000 Y=-50.000 Z=-6850.000) RuntimeGrid:None EditorOnly:0 RuntimeOnly:0 HLODRelevant:0 ListedInSceneOutliner:1 IsMainWorldOnly:0 FolderPath:Lighting FolderGuid:B7E9BD5B45A652654791988DEF54CCEB
 |   |   |- [+] [ 65]
 |   |   |   |- Guid:D97B3E514D1673FB3F1DAE9393134162 BaseClass: NativeClass:/Script/Engine.WorldPartitionHLOD Name:HLOD0_Instancing_00000000e6f72a11 Label:HLOD0_Instancing/OpenWorld_MainGrid_L0_X-3_Y3 SpatiallyLoaded:0 Bounds:IsValid=true, Min=(X=-89600.000 Y=64000.000 Z=8263.281), Max=(X=-64000.000 Y=89600.000 Z=13605.469) RuntimeGrid:None EditorOnly:0 RuntimeOnly:1 HLODRelevant:1 ListedInSceneOutliner:1 IsMainWorldOnly:0 FolderPath:HLOD/HLOD0_Instancing FolderGuid:C11A5F59487C0DB2AA58CABA5DEDB377
 |   |   |- [+] [ 66]
 |   |   |   |- Guid:E94AA2814B807AD72A3C8C8201C8737F BaseClass: NativeClass:/Script/Engine.WorldPartitionHLOD Name:HLOD0_Instancing_0000000027100cbc Label:HLOD0_Instancing/OpenWorld_MainGrid_L0_X0_Y-2 SpatiallyLoaded:0 Bounds:IsValid=true, Min=(X=-12800.000 Y=-64000.000 Z=106.250), Max=(X=12800.000 Y=-38400.000 Z=8805.469) RuntimeGrid:None EditorOnly:0 RuntimeOnly:1 HLODRelevant:1 ListedInSceneOutliner:1 IsMainWorldOnly:0 FolderPath:HLOD/HLOD0_Instancing FolderGuid:C11A5F59487C0DB2AA58CABA5DEDB377
 |   |   |- [+] [ 67]
 |   |   |   |- Guid:EEAED7084128DD19384A44A103777B1F BaseClass: NativeClass:/Script/Engine.StaticMeshActor Name:StaticMeshActor_UAID_F0A6548ADAD336DA01_1553459879 Label:Wall5 SpatiallyLoaded:1 Bounds:IsValid=true, Min=(X=-114.544 Y=99.511 Z=-10.931), Max=(X=-86.621 Y=1518.539 Z=289.069) RuntimeGrid:None EditorOnly:0 RuntimeOnly:0 HLODRelevant:1 ListedInSceneOutliner:1 IsMainWorldOnly:0 FolderPath:Level FolderGuid:ECF4A5644D61ACF1ACFA9E9FA127BF7C
 |   |   |- [+] [ 68]
 |   |   |   |- Guid:EFE127DE4AC87B71A77BF185DB0CE52E BaseClass: NativeClass:/Script/Engine.WorldPartitionHLOD Name:HLOD0_Instancing_00000000a0644c05 Label:HLOD0_Instancing/OpenWorld_MainGrid_L0_X3_Y-3 SpatiallyLoaded:0 Bounds:IsValid=true, Min=(X=64000.000 Y=-89600.000 Z=7522.656), Max=(X=89600.000 Y=-64000.000 Z=13553.906) RuntimeGrid:None EditorOnly:0 RuntimeOnly:1 HLODRelevant:1 ListedInSceneOutliner:1 IsMainWorldOnly:0 FolderPath:HLOD/HLOD0_Instancing FolderGuid:C11A5F59487C0DB2AA58CABA5DEDB377
 |   |   |- [+] [ 69]
 |   |   |   |- Guid:F28AE21E43BC5CB958703B8708F1A64E BaseClass: NativeClass:/Script/Engine.WorldPartitionHLOD Name:HLOD0_Instancing_00000000462530dd Label:HLOD0_Instancing/OpenWorld_MainGrid_L0_X0_Y2 SpatiallyLoaded:0 Bounds:IsValid=true, Min=(X=-12800.000 Y=38400.000 Z=100.000), Max=(X=12800.000 Y=64000.000 Z=5252.344) RuntimeGrid:None EditorOnly:0 RuntimeOnly:1 HLODRelevant:1 ListedInSceneOutliner:1 IsMainWorldOnly:0 FolderPath:HLOD/HLOD0_Instancing FolderGuid:C11A5F59487C0DB2AA58CABA5DEDB377
 |   |   |- [+] [ 70]
 |   |   |   |- Guid:F4E81540458864929650D1B8E8566222 BaseClass: NativeClass:/Script/Engine.WorldPartitionHLOD Name:HLOD0_Instancing_00000000195576f6 Label:HLOD0_Instancing/OpenWorld_MainGrid_L0_X-2_Y2 SpatiallyLoaded:0 Bounds:IsValid=true, Min=(X=-64000.000 Y=38400.000 Z=3219.531), Max=(X=-38400.000 Y=64000.000 Z=9172.656) RuntimeGrid:None EditorOnly:0 RuntimeOnly:1 HLODRelevant:1 ListedInSceneOutliner:1 IsMainWorldOnly:0 FolderPath:HLOD/HLOD0_Instancing FolderGuid:C11A5F59487C0DB2AA58CABA5DEDB377
 |- ContainerInstances:
 |- [+] MainContainer:
 |   |-        ID: 00000000000000000000000000000000
 |   |-  ParentID: 00000000000000000000000000000000
 |   |-    Bounds: IsValid=true, Min=(X=-1509.027 Y=-1519.799 Z=-10.931), Max=(X=1534.497 Y=1530.098 Z=289.069)
 |   |- Transform: 0.000000,0.000000,0.000000|0.000000,0.000000,-0.000000|1.000000,1.000000,1.000000
 |   |- Container: /Game/Levels/Main
----------------------------------------------------------------------------------------------------------------
Main - Persistent Level
----------------------------------------------------------------------------------------------------------------
[+] Content of Main Persistent Level
 |- Always loaded Actor Count: 77 
 |- Actor Path: /Game/Levels/Main.Main:PersistentLevel.AbstractNavData-Default
 |- Actor Package: /Game/Levels/Main
 |- Actor Path: /Game/Levels/Main.Main:PersistentLevel.Brush_0
 |- Actor Package: /Game/Levels/Main
 |- Actor Path: /Game/Levels/Main.Main:PersistentLevel.DefaultPhysicsVolume_0
 |- Actor Package: /Game/Levels/Main
 |- Actor Path: /Game/Levels/Main.Main:PersistentLevel.DirectionalLight_UAID_A85E45CFE40401D200_1470382761
 |- Actor Package: /Game/__ExternalActors__/Levels/Main/D/23/BFWH24TD2LMD558GATLYS4
 |- Actor Path: /Game/Levels/Main.Main:PersistentLevel.ExponentialHeightFog_UAID_A85E45CFE40401D200_1470382763
 |- Actor Package: /Game/__ExternalActors__/Levels/Main/5/0T/DWDR4QEF6CFOE59AJ0Q3B6
 |- Actor Path: /Game/Levels/Main.Main:PersistentLevel.GameplayDebuggerPlayerManager_0
 |- Actor Package: /Game/Levels/Main
 |- Actor Path: /Game/Levels/Main.Main:PersistentLevel.HLOD0_Instancing_0000000002ff7cbc
 |- Actor Package: /Game/__ExternalActors__/Levels/Main/2/CZ/OVL5G47JIKA7IJ3GBIWJD6
 |- Actor Path: /Game/Levels/Main.Main:PersistentLevel.HLOD0_Instancing_000000000479efcd
 |- Actor Package: /Game/__ExternalActors__/Levels/Main/A/XU/OZOONN9M7KLQ4MQT6P80DG
 |- Actor Path: /Game/Levels/Main.Main:PersistentLevel.HLOD0_Instancing_00000000195576f6
 |- Actor Package: /Game/__ExternalActors__/Levels/Main/1/RX/KMAY50JEZJJXVCG8JSWIHF
 |- Actor Path: /Game/Levels/Main.Main:PersistentLevel.HLOD0_Instancing_000000002387b43f
 |- Actor Package: /Game/__ExternalActors__/Levels/Main/4/Q8/6K73N8OYRYZWHFX7P985YV
 |- Actor Path: /Game/Levels/Main.Main:PersistentLevel.HLOD0_Instancing_00000000249b061a
 |- Actor Package: /Game/__ExternalActors__/Levels/Main/0/V4/TFT6HRIIJ7DVZUE280ZN1O
 |- Actor Path: /Game/Levels/Main.Main:PersistentLevel.HLOD0_Instancing_0000000025e68ee6
 |- Actor Package: /Game/__ExternalActors__/Levels/Main/3/DI/HDN8UAL8Q9BYQHSMZNIZTY
 |- Actor Path: /Game/Levels/Main.Main:PersistentLevel.HLOD0_Instancing_0000000027100cbc
 |- Actor Package: /Game/__ExternalActors__/Levels/Main/C/KH/B4J80CB33VP8EJTN5R1IS9
 |- Actor Path: /Game/Levels/Main.Main:PersistentLevel.HLOD0_Instancing_000000002a2da2ce
 |- Actor Package: /Game/__ExternalActors__/Levels/Main/8/OG/DGRC6BVMM6R002TFIMFFNR
 |- Actor Path: /Game/Levels/Main.Main:PersistentLevel.HLOD0_Instancing_000000002cd92eb1
 |- Actor Package: /Game/__ExternalActors__/Levels/Main/3/16/URCPAPGGW3LL1PDX8Z5RJV
 |- Actor Path: /Game/Levels/Main.Main:PersistentLevel.HLOD0_Instancing_00000000326281e7
 |- Actor Package: /Game/__ExternalActors__/Levels/Main/9/9W/PU2SVN74XCVJKL1RTPAMFJ
 |- Actor Path: /Game/Levels/Main.Main:PersistentLevel.HLOD0_Instancing_00000000456f111a
 |- Actor Package: /Game/__ExternalActors__/Levels/Main/B/EC/XFE7T63FPMSGL7GGCFGGYG
 |- Actor Path: /Game/Levels/Main.Main:PersistentLevel.HLOD0_Instancing_00000000462530dd
 |- Actor Package: /Game/__ExternalActors__/Levels/Main/5/31/VPZNNF9DG6FSH8VGNQE1JA
 |- Actor Path: /Game/Levels/Main.Main:PersistentLevel.HLOD0_Instancing_0000000047fd3b2b
 |- Actor Package: /Game/__ExternalActors__/Levels/Main/C/PI/NLLKXX130E05341TPE8T4F
 |- Actor Path: /Game/Levels/Main.Main:PersistentLevel.HLOD0_Instancing_000000004985b47c
 |- Actor Package: /Game/__ExternalActors__/Levels/Main/5/LJ/8QXVPEVR6XSU2QDGKM9XHH
 |- Actor Path: /Game/Levels/Main.Main:PersistentLevel.HLOD0_Instancing_000000004fc1faed
 |- Actor Package: /Game/__ExternalActors__/Levels/Main/6/15/BQ9F03RKXOSLL2APHNPIP4
 |- Actor Path: /Game/Levels/Main.Main:PersistentLevel.HLOD0_Instancing_0000000058c07e9c
 |- Actor Package: /Game/__ExternalActors__/Levels/Main/D/QB/JN9AYHL9IAIHH5D8BINE77
 |- Actor Path: /Game/Levels/Main.Main:PersistentLevel.HLOD0_Instancing_000000005ade2593
 |- Actor Package: /Game/__ExternalActors__/Levels/Main/1/NS/DXW56G91IFNE8HL8K3O2J6
 |- Actor Path: /Game/Levels/Main.Main:PersistentLevel.HLOD0_Instancing_0000000061048ba5
 |- Actor Package: /Game/__ExternalActors__/Levels/Main/2/8C/QGLCJ6CDC11K26N6YDRVD4
 |- Actor Path: /Game/Levels/Main.Main:PersistentLevel.HLOD0_Instancing_0000000061d8a24a
 |- Actor Package: /Game/__ExternalActors__/Levels/Main/3/XJ/HOISQEBDUJOF533M1PLK5A
 |- Actor Path: /Game/Levels/Main.Main:PersistentLevel.HLOD0_Instancing_000000007055a5f9
 |- Actor Package: /Game/__ExternalActors__/Levels/Main/1/DQ/WJTXGV5BPSN713CLGFLRQY
 |- Actor Path: /Game/Levels/Main.Main:PersistentLevel.HLOD0_Instancing_0000000075fc1435
 |- Actor Package: /Game/__ExternalActors__/Levels/Main/7/ID/KVAXJCEC8FC0JHQCL06I3M
 |- Actor Path: /Game/Levels/Main.Main:PersistentLevel.HLOD0_Instancing_0000000076832c01
 |- Actor Package: /Game/__ExternalActors__/Levels/Main/1/Y7/U7JD6DTVGB21ZIO5I0PB87
 |- Actor Path: /Game/Levels/Main.Main:PersistentLevel.HLOD0_Instancing_0000000077f7731e
 |- Actor Package: /Game/__ExternalActors__/Levels/Main/0/LA/OB3QZPAM0BO61K9HKPTBYY
 |- Actor Path: /Game/Levels/Main.Main:PersistentLevel.HLOD0_Instancing_000000007a1ec134
 |- Actor Package: /Game/__ExternalActors__/Levels/Main/A/C4/83KR4F77D9HACSA6EYCAQO
 |- Actor Path: /Game/Levels/Main.Main:PersistentLevel.HLOD0_Instancing_000000007e3ba091
 |- Actor Package: /Game/__ExternalActors__/Levels/Main/9/26/4MPKQG70ANGUMQI1ZS05J5
 |- Actor Path: /Game/Levels/Main.Main:PersistentLevel.HLOD0_Instancing_000000007ee1c9e3
 |- Actor Package: /Game/__ExternalActors__/Levels/Main/B/C9/2J0EB8IFKIUDNQSM5LSY9D
 |- Actor Path: /Game/Levels/Main.Main:PersistentLevel.HLOD0_Instancing_000000008074caed
 |- Actor Package: /Game/__ExternalActors__/Levels/Main/C/VQ/FZ6T7XN0J23A7GUG8M5U0W
 |- Actor Path: /Game/Levels/Main.Main:PersistentLevel.HLOD0_Instancing_00000000808a2d8c
 |- Actor Package: /Game/__ExternalActors__/Levels/Main/B/EI/FJ4OPOEIQ7IUVSX0VZKRMZ
 |- Actor Path: /Game/Levels/Main.Main:PersistentLevel.HLOD0_Instancing_00000000809b5cf8
 |- Actor Package: /Game/__ExternalActors__/Levels/Main/0/7R/N6SPOBSK6CQ9W8LNPQYPO8
 |- Actor Path: /Game/Levels/Main.Main:PersistentLevel.HLOD0_Instancing_000000008429cf49
 |- Actor Package: /Game/__ExternalActors__/Levels/Main/4/76/3GZBWY7I3KFIY5F7RTO2CQ
 |- Actor Path: /Game/Levels/Main.Main:PersistentLevel.HLOD0_Instancing_0000000089b7cce8
 |- Actor Package: /Game/__ExternalActors__/Levels/Main/D/GD/KN9FDVE06HBCDI1EZP0QGH
 |- Actor Path: /Game/Levels/Main.Main:PersistentLevel.HLOD0_Instancing_000000009100159d
 |- Actor Package: /Game/__ExternalActors__/Levels/Main/5/0T/RXPKEKPM8IXOJNZ01MKVQM
 |- Actor Path: /Game/Levels/Main.Main:PersistentLevel.HLOD0_Instancing_00000000923b1f94
 |- Actor Package: /Game/__ExternalActors__/Levels/Main/B/1Q/77GGP08HBZ8P5FLIJ75MSQ
 |- Actor Path: /Game/Levels/Main.Main:PersistentLevel.HLOD0_Instancing_000000009ec32732
 |- Actor Package: /Game/__ExternalActors__/Levels/Main/6/JW/WSLZQCVIOR64CCPP361MYA
 |- Actor Path: /Game/Levels/Main.Main:PersistentLevel.HLOD0_Instancing_00000000a0644c05
 |- Actor Package: /Game/__ExternalActors__/Levels/Main/4/RY/DA3QPP06BHTB3Z8TNTPFQK
 |- Actor Path: /Game/Levels/Main.Main:PersistentLevel.HLOD0_Instancing_00000000a7e8df26
 |- Actor Package: /Game/__ExternalActors__/Levels/Main/A/V9/M9BRRM1ORE0JB82KOC7XUB
 |- Actor Path: /Game/Levels/Main.Main:PersistentLevel.HLOD0_Instancing_00000000ada93d64
 |- Actor Package: /Game/__ExternalActors__/Levels/Main/E/Q5/S7XVPSJTSIEH8R134LLKKV
 |- Actor Path: /Game/Levels/Main.Main:PersistentLevel.HLOD0_Instancing_00000000b1d9170c
 |- Actor Package: /Game/__ExternalActors__/Levels/Main/7/OV/JR5W9QES3O1UAKJGHBSAR6
 |- Actor Path: /Game/Levels/Main.Main:PersistentLevel.HLOD0_Instancing_00000000be4f81c5
 |- Actor Package: /Game/__ExternalActors__/Levels/Main/B/V1/26JTSI2EZ4AORDGLPP673C
 |- Actor Path: /Game/Levels/Main.Main:PersistentLevel.HLOD0_Instancing_00000000ce61b913
 |- Actor Package: /Game/__ExternalActors__/Levels/Main/A/PE/LNJI182A6V9VWIL72C0VKB
 |- Actor Path: /Game/Levels/Main.Main:PersistentLevel.HLOD0_Instancing_00000000cf9074b0
 |- Actor Package: /Game/__ExternalActors__/Levels/Main/A/I2/8R7ZX60M2WVPO1QW5LM7YO
 |- Actor Path: /Game/Levels/Main.Main:PersistentLevel.HLOD0_Instancing_00000000e6f72a11
 |- Actor Package: /Game/__ExternalActors__/Levels/Main/C/PZ/SGIA39BFE5G709D451J5XQ
 |- Actor Path: /Game/Levels/Main.Main:PersistentLevel.HLOD0_Instancing_00000000e893856a
 |- Actor Package: /Game/__ExternalActors__/Levels/Main/9/QV/PEQMBFHZPMWCWQZCKH6VWK
 |- Actor Path: /Game/Levels/Main.Main:PersistentLevel.HLOD0_Instancing_00000000e95cf541
 |- Actor Package: /Game/__ExternalActors__/Levels/Main/C/PL/HYWTLMXKOC3V34MSJMG38I
 |- Actor Path: /Game/Levels/Main.Main:PersistentLevel.HLOD0_Instancing_00000000e9f6f481
 |- Actor Package: /Game/__ExternalActors__/Levels/Main/5/4D/FEB4HOXNDGG70FPZMLF074
 |- Actor Path: /Game/Levels/Main.Main:PersistentLevel.HLOD0_Instancing_00000000ed334d9f
 |- Actor Package: /Game/__ExternalActors__/Levels/Main/E/Q0/OR00ORF2TVB51PLOXY8509
 |- Actor Path: /Game/Levels/Main.Main:PersistentLevel.HLOD0_Instancing_00000000eef772e0
 |- Actor Package: /Game/__ExternalActors__/Levels/Main/B/SF/EMFR0FHPQZYY6IA4BJW49J
 |- Actor Path: /Game/Levels/Main.Main:PersistentLevel.HLOD0_Instancing_00000000faffa43c
 |- Actor Package: /Game/__ExternalActors__/Levels/Main/3/E1/GI1520UE4MH1XC7B8D0OCI
 |- Actor Path: /Game/Levels/Main.Main:PersistentLevel.HLOD0_Instancing_00000000fdc49d15
 |- Actor Package: /Game/__ExternalActors__/Levels/Main/8/BU/6UPDFXHYCP06JDNMAE1DBP
 |- Actor Path: /Game/Levels/Main.Main:PersistentLevel.PlayerStart_UAID_F02F74551BF5599B01_1153002503
 |- Actor Package: /Game/__ExternalActors__/Levels/Main/8/3T/3MZ8DEDYU4XIKD53TCLQ05
 |- Actor Path: /Game/Levels/Main.Main:PersistentLevel.SkyAtmosphere_UAID_A85E45CFE40401D200_1470382762
 |- Actor Package: /Game/__ExternalActors__/Levels/Main/0/4C/Z5TJFJMIECHR6JPW810NT2
 |- Actor Path: /Game/Levels/Main.Main:PersistentLevel.SkyLight_UAID_A85E45CFE40401D200_1470380759
 |- Actor Package: /Game/__ExternalActors__/Levels/Main/8/6E/LXZ2VCUXW5SQ1IS1VY4U4R
 |- Actor Path: /Game/Levels/Main.Main:PersistentLevel.StaticMeshActor_UAID_A4AE111137DC54FB00_1240666663
 |- Actor Package: /Game/__ExternalActors__/Levels/Main/5/QD/5YJMEA7N9R8Z4LS8TCK0X5
 |- Actor Path: /Game/Levels/Main.Main:PersistentLevel.StaticMeshActor_UAID_F0A6548ADAD32EDA01_1536357463
 |- Actor Package: /Game/__ExternalActors__/Levels/Main/4/J3/NZ3WK9RNCPKDN1E2C98JKV
 |- Actor Path: /Game/Levels/Main.Main:PersistentLevel.StaticMeshActor_UAID_F0A6548ADAD332DA01_2100074169
 |- Actor Package: /Game/__ExternalActors__/Levels/Main/E/YU/49GX5Q7DZ9YALNY3B12SGH
 |- Actor Path: /Game/Levels/Main.Main:PersistentLevel.StaticMeshActor_UAID_F0A6548ADAD336DA01_1456060875
 |- Actor Package: /Game/__ExternalActors__/Levels/Main/C/2T/9ZEEGOW9ALKZHEKIZC6L6G
 |- Actor Path: /Game/Levels/Main.Main:PersistentLevel.StaticMeshActor_UAID_F0A6548ADAD336DA01_1517784876
 |- Actor Package: /Game/__ExternalActors__/Levels/Main/A/GM/ZEZV9MCCV8R2KA8OD5W4WQ
 |- Actor Path: /Game/Levels/Main.Main:PersistentLevel.StaticMeshActor_UAID_F0A6548ADAD336DA01_1544031877
 |- Actor Package: /Game/__ExternalActors__/Levels/Main/C/78/5DTO1QW3YB9LVHIU83H5IB
 |- Actor Path: /Game/Levels/Main.Main:PersistentLevel.StaticMeshActor_UAID_F0A6548ADAD336DA01_1544034878
 |- Actor Package: /Game/__ExternalActors__/Levels/Main/C/YE/PZ778221GCT4GA60BRTLLK
 |- Actor Path: /Game/Levels/Main.Main:PersistentLevel.StaticMeshActor_UAID_F0A6548ADAD336DA01_1553459879
 |- Actor Package: /Game/__ExternalActors__/Levels/Main/9/X4/SSFPDPXBAMI759WXYRQVPC
 |- Actor Path: /Game/Levels/Main.Main:PersistentLevel.StaticMeshActor_UAID_F0A6548ADAD336DA01_1553461880
 |- Actor Package: /Game/__ExternalActors__/Levels/Main/9/MZ/WWV6V8PQE7MGLA2EEXN5B1
 |- Actor Path: /Game/Levels/Main.Main:PersistentLevel.StaticMeshActor_UAID_F0A6548ADAD336DA01_1578473881
 |- Actor Package: /Game/__ExternalActors__/Levels/Main/1/XT/B9SMWP5NPL6MWX3MNYUNBN
 |- Actor Path: /Game/Levels/Main.Main:PersistentLevel.StaticMeshActor_UAID_F0A6548ADAD336DA01_1578476882
 |- Actor Package: /Game/__ExternalActors__/Levels/Main/0/HU/G0ERTG1IBGSEOMI4BZY3QH
 |- Actor Path: /Game/Levels/Main.Main:PersistentLevel.StaticMeshActor_UAID_F0A6548ADAD336DA01_1641727883
 |- Actor Package: /Game/__ExternalActors__/Levels/Main/6/AC/O8D0C7DXUT1LT29ZKMIVJ0
 |- Actor Path: /Game/Levels/Main.Main:PersistentLevel.StaticMeshActor_UAID_F0A6548ADAD336DA01_1663835884
 |- Actor Package: /Game/__ExternalActors__/Levels/Main/B/Z1/X9CZ8JZGXVPCCS4CNZP6HW
 |- Actor Path: /Game/Levels/Main.Main:PersistentLevel.StaticMeshActor_UAID_F0A6548ADAD336DA01_1687755886
 |- Actor Package: /Game/__ExternalActors__/Levels/Main/3/TL/EQ2PLTO6IT0QL555EKB543
 |- Actor Path: /Game/Levels/Main.Main:PersistentLevel.StaticMeshActor_UAID_F0A6548ADAD336DA01_1687757887
 |- Actor Package: /Game/__ExternalActors__/Levels/Main/0/IR/B9GUVGKYV37BR3Q4VLVE14
 |- Actor Path: /Game/Levels/Main.Main:PersistentLevel.StaticMeshActor_UAID_F0A6548ADAD380DA01_1828323895
 |- Actor Package: /Game/__ExternalActors__/Levels/Main/2/K0/A7J14XDCR8BZK63JOMMBTW
 |- Actor Path: /Game/Levels/Main.Main:PersistentLevel.WorldDataLayers
 |- Actor Package: /Game/__ExternalActors__/Levels/Main/7/WC/LIMPJVNRB5FXT22O92IQNR
 |- Actor Path: /Game/Levels/Main.Main:PersistentLevel.WorldPartitionMiniMap_UAID_3497F631D5890DD300_1296925927
 |- Actor Package: /Game/__ExternalActors__/Levels/Main/0/KX/WS2A53WR8KKKPTPC9XKKOE
 |- Actor Path: /Game/Levels/Main.Main:PersistentLevel.WorldSettings
 |- Actor Package: /Game/Levels/Main

----------------------------------------------------------------------------------------------------------------
Main - Runtime Spatial Hash - Streaming Grid - MainGrid
----------------------------------------------------------------------------------------------------------------
            Origin: X=0.000 Y=0.000 Z=0.000
         Cell Size: 25600
      World Bounds: IsValid=true, Min=(X=-1509.027 Y=-1519.799 Z=-10.931), Max=(X=1534.497 Y=1530.098 Z=289.069)
     Loading Range: 76800.00
Block Slow Loading: No
 ClientOnlyVisible: No
            Origin: X=0.000 Y=0.000 Z=0.000

[+] Grid Levels: 2
 |- Level  0: Cell Count    1 | Cell Size   25600 | Actor Count   15 (100.0%)
 |- Level  1: Cell Count    0 | Cell Size   51200 | Actor Count    0 (0.0%)

[+] Content of Grid Level 0
 |- [+] Content of Cell Main_MainGrid_L0_X0_Y0 (18BI1SXMYPO5VF2TNSCB290UP)
 |   |- Actor Count: 15
 |   |-          Actor Path: /Game/Levels/Main.Main:PersistentLevel.StaticMeshActor_UAID_F0A6548ADAD336DA01_1517784876
 |   |-       Actor Package: /Game/__ExternalActors__/Levels/Main/A/GM/ZEZV9MCCV8R2KA8OD5W4WQ
 |   |- Actor Instance Guid: 0489A2D745F52C930EF623ADCADD0D55
 |   |-          Actor Path: /Game/Levels/Main.Main:PersistentLevel.StaticMeshActor_UAID_F0A6548ADAD336DA01_1553461880
 |   |-       Actor Package: /Game/__ExternalActors__/Levels/Main/9/MZ/WWV6V8PQE7MGLA2EEXN5B1
 |   |- Actor Instance Guid: 07038FC34C222D974DE3ACBDE6113AE5
 |   |-          Actor Path: /Game/Levels/Main.Main:PersistentLevel.StaticMeshActor_UAID_F0A6548ADAD336DA01_1544031877
 |   |-       Actor Package: /Game/__ExternalActors__/Levels/Main/C/78/5DTO1QW3YB9LVHIU83H5IB
 |   |- Actor Instance Guid: 095EDDD4412D5CB3F4C9AD8B4C5BE2C9
 |   |-          Actor Path: /Game/Levels/Main.Main:PersistentLevel.StaticMeshActor_UAID_F0A6548ADAD336DA01_1544034878
 |   |-       Actor Package: /Game/__ExternalActors__/Levels/Main/C/YE/PZ778221GCT4GA60BRTLLK
 |   |- Actor Instance Guid: 2C4435F14FA580A9D498E08F24FBAF3E
 |   |-          Actor Path: /Game/Levels/Main.Main:PersistentLevel.StaticMeshActor_UAID_F0A6548ADAD336DA01_1578476882
 |   |-       Actor Package: /Game/__ExternalActors__/Levels/Main/0/HU/G0ERTG1IBGSEOMI4BZY3QH
 |   |- Actor Instance Guid: 367975094365C1CC47BBAD880488F913
 |   |-          Actor Path: /Game/Levels/Main.Main:PersistentLevel.StaticMeshActor_UAID_F0A6548ADAD336DA01_1687755886
 |   |-       Actor Package: /Game/__ExternalActors__/Levels/Main/3/TL/EQ2PLTO6IT0QL555EKB543
 |   |- Actor Instance Guid: 475182E54B2284542BA2D6AF15E9DEF5
 |   |-          Actor Path: /Game/Levels/Main.Main:PersistentLevel.StaticMeshActor_UAID_F0A6548ADAD336DA01_1663835884
 |   |-       Actor Package: /Game/__ExternalActors__/Levels/Main/B/Z1/X9CZ8JZGXVPCCS4CNZP6HW
 |   |- Actor Instance Guid: 6B05C2654F3DD7BA920844AF93A8F40D
 |   |-          Actor Path: /Game/Levels/Main.Main:PersistentLevel.StaticMeshActor_UAID_F0A6548ADAD336DA01_1456060875
 |   |-       Actor Package: /Game/__ExternalActors__/Levels/Main/C/2T/9ZEEGOW9ALKZHEKIZC6L6G
 |   |- Actor Instance Guid: 73ABC5934D216E3D7B0D21AF11AE9CCB
 |   |-          Actor Path: /Game/Levels/Main.Main:PersistentLevel.StaticMeshActor_UAID_F0A6548ADAD380DA01_1828323895
 |   |-       Actor Package: /Game/__ExternalActors__/Levels/Main/2/K0/A7J14XDCR8BZK63JOMMBTW
 |   |- Actor Instance Guid: 78FFF12D464297AE5F9B2FB4DFB25D86
 |   |-          Actor Path: /Game/Levels/Main.Main:PersistentLevel.StaticMeshActor_UAID_F0A6548ADAD336DA01_1687757887
 |   |-       Actor Package: /Game/__ExternalActors__/Levels/Main/0/IR/B9GUVGKYV37BR3Q4VLVE14
 |   |- Actor Instance Guid: 7FB0FCF94972C8D8CCEB4D902956A3CF
 |   |-          Actor Path: /Game/Levels/Main.Main:PersistentLevel.StaticMeshActor_UAID_F0A6548ADAD336DA01_1641727883
 |   |-       Actor Package: /Game/__ExternalActors__/Levels/Main/6/AC/O8D0C7DXUT1LT29ZKMIVJ0
 |   |- Actor Instance Guid: 98CD5BD34DBE5140765DA78928BA05F1
 |   |-          Actor Path: /Game/Levels/Main.Main:PersistentLevel.StaticMeshActor_UAID_F0A6548ADAD336DA01_1578473881
 |   |-       Actor Package: /Game/__ExternalActors__/Levels/Main/1/XT/B9SMWP5NPL6MWX3MNYUNBN
 |   |- Actor Instance Guid: B9001F2C41C705888E81A9AEC1A0135D
 |   |-          Actor Path: /Game/Levels/Main.Main:PersistentLevel.StaticMeshActor_UAID_F0A6548ADAD332DA01_2100074169
 |   |-       Actor Package: /Game/__ExternalActors__/Levels/Main/E/YU/49GX5Q7DZ9YALNY3B12SGH
 |   |- Actor Instance Guid: BAAAB9AD4A6DED4ED0A49782063EA5A2
 |   |-          Actor Path: /Game/Levels/Main.Main:PersistentLevel.StaticMeshActor_UAID_F0A6548ADAD32EDA01_1536357463
 |   |-       Actor Package: /Game/__ExternalActors__/Levels/Main/4/J3/NZ3WK9RNCPKDN1E2C98JKV
 |   |- Actor Instance Guid: D26B2F7341AFAC5ABA460787A2CA4CBE
 |   |-          Actor Path: /Game/Levels/Main.Main:PersistentLevel.StaticMeshActor_UAID_F0A6548ADAD336DA01_1553459879
 |   |-       Actor Package: /Game/__ExternalActors__/Levels/Main/9/X4/SSFPDPXBAMI759WXYRQVPC
 |   |- Actor Instance Guid: EEAED7084128DD19384A44A103777B1F
[+] Content of Grid Level 1

